Name,Country,State,Event,Equipment,Division,Sex,WeightClassKg,Best3DeadliftKg,Deadlift4Kg,Best3BenchKg,Bench4Kg,TotalKg,Place
Nick Lenhart,,UT,D,Single-ply,Class 1,M,60,220,,,,220,1
Travis Belen,,WA,D,Single-ply,Class 1,M,60,167.5,,,,167.5,2
Barry Kunkel,,OR,D,Single-ply,Class 1,M,67.5,222.5,,,,222.5,1
Darwin Dessau,,PA,D,Single-ply,Class 1,M,67.5,190,,,,190,2
Cervantes Hernandez Moretra,Dominican Republic,,D,Single-ply,Class 1,M,67.5,137.5,,,,137.5,3
Jason Dorsey,,WA,D,Single-ply,Class 1,M,75,230,,,,230,1
Barry Folgate,,IL,D,Single-ply,Class 1,M,75,210,,,,210,2
Aaron Benes,,CA,D,Single-ply,Class 1,M,75,210,,,,210,3
Jason La Reaux,,NV,D,Single-ply,Class 1,M,75,202.5,,,,202.5,4
Roger Cole,,WA,D,Single-ply,Class 1,M,75,197.5,,,,197.5,5
Windell Potier,,CA,D,Single-ply,Class 1,M,75,192.5,,,,192.5,6
Mark Reuer,,SD,D,Single-ply,Class 1,M,75,185,,,,185,7
Michael Pettinger,,IL,D,Single-ply,Class 1,M,82.5,240,,,,240,1
Gregory Watson,,CA,D,Single-ply,Class 1,M,82.5,237.5,,,,237.5,2
Hae-Ryong Chung,South Korea,,D,Single-ply,Class 1,M,82.5,192.5,,,,192.5,3
Starkey Hedger,,IL,D,Single-ply,Class 1,M,90,265,,,,265,1
Hunter Beall,,LA,D,Single-ply,Class 1,M,90,260,,,,260,2
David Bickerstaff,,TX,D,Single-ply,Class 1,M,90,252.5,,,,252.5,3
Earl Solidum,,HI,D,Single-ply,Class 1,M,90,250,,,,250,4
Landon Cross,,IL,D,Single-ply,Class 1,M,90,240,,,,240,5
Pedro Da Silva,,CA,D,Single-ply,Class 1,M,90,227.5,,,,227.5,6
Eddie Mendez,,IA,D,Single-ply,Class 1,M,90,215,,,,215,7
Curtis Stranghoener,,HI,D,Single-ply,Class 1,M,90,210,,,,210,8
Patrick Shippert,,IL,D,Single-ply,Class 1,M,100,287.5,,,,287.5,1
Kim Long,,WI,D,Single-ply,Class 1,M,100,260,,,,260,2
Steven Petersen,,TX,D,Single-ply,Class 1,M,100,260,,,,260,3
Thomas Reiher,,HI,D,Single-ply,Class 1,M,100,225,,,,225,4
Marc Taylor,,MN,D,Single-ply,Class 1,M,100,200,,,,200,5
Joaquin Perez,,CA,D,Single-ply,Class 1,M,100,195,,,,195,6
Austin Hodge,,TX,D,Single-ply,Class 1,M,110,300,,,,300,1
Travis McCormick,,OR,D,Single-ply,Class 1,M,110,282.5,,,,282.5,2
Kegan Engelke,,WA,D,Single-ply,Class 1,M,110,282.5,,,,282.5,3
Ron L'Huillier,,MI,D,Single-ply,Class 1,M,110,252.5,,,,252.5,4
Jonathon Kos,,NV,D,Single-ply,Class 1,M,110,250,,,,250,5
Tom Pennella,,WA,D,Single-ply,Class 1,M,117.5,305,,,,305,1
James Dunn #3,,TX,D,Single-ply,Class 1,M,117.5,295,,,,295,2
William Hamilton,,AL,D,Single-ply,Class 1,M,117.5,290,,,,290,3
Steve Palano,,UT,D,Single-ply,Class 1,M,117.5,212.5,,,,212.5,4
Kenneth Scroggins,,AR,D,Single-ply,Class 1,M,125,320,,,,320,1
Jason Gibson,,UT,D,Single-ply,Class 1,M,125,300,,,,300,2
Eric Welch,,NV,D,Single-ply,Class 1,M,125,297.5,,,,297.5,3
Vashon Brumfield,,WA,D,Single-ply,Class 1,M,125,272.5,,,,272.5,4
Brandon Bankston,,LA,D,Single-ply,Class 1,M,125,265,,,,265,5
Brad Cikana,,CA,D,Single-ply,Class 1,M,125,255,,,,255,6
David Bergman,,IL,D,Single-ply,Class 1,M,125,215,,,,215,7
Chane Cline,,OH,D,Single-ply,Class 1,M,140+,290,,,,290,1
Maarten Roelofs,,UT,D,Single-ply,Class 1,M,140+,227.5,,,,227.5,2
Leo Contreras,,CA,D,Single-ply,Class 1,M,140+,182.5,,,,182.5,3
Jonathan Jenkins,,MT,D,Single-ply,Disabled,M,90,192.5,,,,192.5,1
Gregory Gibson,,TN,D,Single-ply,Disabled,M,90,137.5,,,,137.5,2
Steve Peña #1,,CA,D,Single-ply,Disabled,M,100,227.5,,,,227.5,1
Carl Mudge,,OR,D,Single-ply,Disabled,M,100,185,,,,185,2
Cody Colchado,,TX,D,Single-ply,Disabled,M,110,260,,,,260,1
Jeremy Scruggs,,TX,D,Single-ply,Juniors 20-25,M,60,237.5,,,,237.5,1
Nick Dunn #1,,UT,D,Single-ply,Juniors 20-25,M,67.5,262.5,,,,262.5,1
Jeremy Benezra,,WA,D,Single-ply,Juniors 20-25,M,75,272.5,,,,272.5,1
Andrew Kim #4,,IL,D,Single-ply,Juniors 20-25,M,75,220,,,,220,2
Charles West,,IL,D,Single-ply,Juniors 20-25,M,75,182.5,,,,182.5,3
Laramie McMasters,,IL,D,Single-ply,Juniors 20-25,M,75,115,,,,115,4
David Jurgens,,CA,D,Single-ply,Juniors 20-25,M,82.5,287.5,,,,287.5,1
Sean Carr,,IL,D,Single-ply,Juniors 20-25,M,82.5,255,,,,255,2
Joshua Reyes,,IL,D,Single-ply,Juniors 20-25,M,82.5,222.5,,,,222.5,3
Jonathan Olson,,UT,D,Single-ply,Juniors 20-25,M,82.5,167.5,,,,167.5,4
Jason Perez,,TX,D,Single-ply,Juniors 20-25,M,90,262.5,,,,262.5,1
Steven McShane,,MI,D,Single-ply,Juniors 20-25,M,90,260,,,,260,2
Ben Cantrell,,IL,D,Single-ply,Juniors 20-25,M,90,250,,,,250,3
Earl Solidum,,HI,D,Single-ply,Juniors 20-25,M,90,250,,,,250,4
Landon Cross,,IL,D,Single-ply,Juniors 20-25,M,90,240,,,,240,5
Matt Carlin,,PA,D,Single-ply,Juniors 20-25,M,90,237.5,,,,237.5,6
Patrick Shippert,,IL,D,Single-ply,Juniors 20-25,M,100,287.5,,,,287.5,1
Roger Byrd,,TX,D,Single-ply,Juniors 20-25,M,100,245,,,,245,2
Justin Lickfelt,,MI,D,Single-ply,Juniors 20-25,M,100,237.5,,,,237.5,3
Tommy Mendoza,,CA,D,Single-ply,Juniors 20-25,M,100,235,,,,235,4
Michael Minahan,,CA,D,Single-ply,Juniors 20-25,M,100,232.5,,,,232.5,5
Kyle Herzik,,NV,D,Single-ply,Juniors 20-25,M,100,210,,,,210,6
Davey Silva,,HI,D,Single-ply,Juniors 20-25,M,110,275,,,,275,1
Jonathon Kos,,NV,D,Single-ply,Juniors 20-25,M,110,250,,,,250,2
Jerry Pritchett,,AZ,D,Single-ply,Juniors 20-25,M,125,322.5,,,,322.5,1
Nicolas Lepine,,IL,D,Single-ply,Juniors 20-25,M,125,287.5,,,,287.5,2
David Bergman,,IL,D,Single-ply,Juniors 20-25,M,125,215,,,,215,3
Marletta Boyd II,,WA,D,Single-ply,Juniors 20-25,F,67.5,162.5,,,,162.5,1
Kristy Scott,,WA,D,Single-ply,Juniors 20-25,F,75,192.5,,,,192.5,1
Larry Esquivel,,CA,D,Single-ply,Law-Fire 40-47,M,75,175,,,,175,1
Ted Ornduff,,CA,D,Single-ply,Law-Fire 40-47,M,100,235,,,,235,1
Ismyanto Soekardi,,CA,D,Single-ply,Law-Fire 40-47,M,110,295,,,,295,1
Allen Heta,New Zealand,,D,Single-ply,Law-Fire 40-47,M,125,180,,,,180,1
Manny Burruel,,CA,D,Single-ply,Law-Fire 48-55,M,117.5,272.5,,,,272.5,1
Wilbert Kaimikaua,,HI,D,Single-ply,Law-Fire 56+,M,100,170,,,,170,1
Eldon Olson,,MT,D,Single-ply,Law-Fire 56+,M,117.5,182.5,,,,182.5,1
Leticia Rosales-Buie,,CA,D,Single-ply,Law-Fire 40-47,F,56,130,,,,130,1
Rauaroha Joy Heta,New Zealand,,D,Single-ply,Law-Fire 40-47,F,90+,130,135,,,130,1
Michael Garrett,,IL,D,Single-ply,Law-Fire Open,M,90,277.5,,,,277.5,1
David Bickerstaff,,TX,D,Single-ply,Law-Fire Open,M,90,252.5,,,,252.5,2
Joe Vega #3,,TX,D,Single-ply,Law-Fire Open,M,90,240,,,,240,3
Al Bianchi,,MA,D,Single-ply,Law-Fire Open,M,110,300,,,,300,1
Devin Tallerico,,CA,D,Single-ply,Law-Fire Open,M,110,247.5,,,,247.5,2
Marty La Master,,IL,D,Single-ply,Law-Fire Open,M,117.5,297.5,,,,297.5,1
William Hamilton,,AL,D,Single-ply,Law-Fire Open,M,117.5,290,,,,290,2
Tim Prince,,UT,D,Single-ply,Law-Fire Open,M,117.5,250,,,,250,3
Dinael Martinez,,CA,D,Single-ply,Law-Fire Open,M,125,275,,,,275,1
Ricardo Nort,Brazil,,D,Single-ply,Law-Fire Open,M,140,310,,,,310,1
Marcus Austin,,OK,D,Single-ply,Law-Fire Open,M,140,245,,,,245,2
Keoni Reich,,HI,D,Single-ply,Law-Fire Open,M,140+,302.5,,,,302.5,1
Chane Cline,,OH,D,Single-ply,Law-Fire Open,M,140+,290,,,,290,2
Lynda Christopher,,AZ,D,Single-ply,Law-Fire Open,F,56,107.5,,,,107.5,1
Kim Carter,,IL,D,Single-ply,Law-Fire Open,F,67.5,142.5,,,,142.5,1
Abigail Biddle,,IN,D,Single-ply,Law-Fire Open,F,90,125,,,,125,1
Alfred Jackson,,WA,D,Single-ply,Law-Fire Submasters,M,75,260,,,,260,1
Richard Anderson,,AL,D,Single-ply,Law-Fire Submasters,M,75,190,,,,190,2
Michael Garrett,,IL,D,Single-ply,Law-Fire Submasters,M,90,277.5,,,,277.5,1
Jim Casemier,,MI,D,Single-ply,Law-Fire Submasters,M,110,307.5,,,,307.5,1
Devin Tallerico,,CA,D,Single-ply,Law-Fire Submasters,M,110,247.5,,,,247.5,2
Marty La Master,,IL,D,Single-ply,Law-Fire Submasters,M,117.5,297.5,,,,297.5,1
Ricardo Nort,Brazil,,D,Single-ply,Law-Fire Submasters,M,140,310,,,,310,1
Keoni Reich,,HI,D,Single-ply,Law-Fire Submasters,M,140+,302.5,,,,302.5,1
Todd Eggers,,KS,D,Single-ply,Masters 40-46,M,67.5,242.5,,,,242.5,1
Charles Venturella,,PA,D,Single-ply,Masters 40-46,M,67.5,147.5,,,,147.5,2
Keith Cunningham,,WA,D,Single-ply,Masters 40-46,M,75,247.5,,,,247.5,1
Joseph LaMonica,Canada,,D,Single-ply,Masters 40-46,M,75,197.5,,,,197.5,2
Roger Cole,,WA,D,Single-ply,Masters 40-46,M,75,195,,,,195,3
Dan Guches,,OR,D,Single-ply,Masters 40-46,M,82.5,272.5,,,,272.5,1
Mark Lo,,HI,D,Single-ply,Masters 40-46,M,82.5,227.5,,,,227.5,2
Vilmar Oliveira,Brazil,,D,Single-ply,Masters 40-46,M,82.5,200,,,,200,3
Steve LeMarié,,LA,D,Single-ply,Masters 40-46,M,90,305,,,,305,1
Mark Johnson #16,,IN,D,Single-ply,Masters 40-46,M,90,257.5,,,,257.5,2
Brian Baertlein,,OR,D,Single-ply,Masters 40-46,M,90,240,,,,240,3
Gary Lands,,GA,D,Single-ply,Masters 40-46,M,100,265,,,,265,1
Steven Petersen,,TX,D,Single-ply,Masters 40-46,M,100,260,,,,260,2
Harlan South,,IL,D,Single-ply,Masters 40-46,M,100,252.5,,,,252.5,3
Mike Healy,,CA,D,Single-ply,Masters 40-46,M,100,205,,,,205,4
John Pfeiffer,,OH,D,Single-ply,Masters 40-46,M,100,150,,,,150,5
George Herring #1,,GA,D,Single-ply,Masters 40-46,M,110,320,,,,320,1
Cody Colchado,,TX,D,Single-ply,Masters 40-46,M,110,260,,,,260,2
Donnie Hamblin,,AZ,D,Single-ply,Masters 40-46,M,110,240,,,,240,3
Todd Christensen,,WA,D,Single-ply,Masters 40-46,M,117.5,,,,,,DQ
Jason Laskowski,,TX,D,Single-ply,Masters 40-46,M,117.5,,,,,,DQ
Darwin English,,NV,D,Single-ply,Masters 40-46,M,117.5,280,,,,280,1
Brad Stewart,,UT,D,Single-ply,Masters 40-46,M,117.5,217.5,,,,217.5,2
Victor Shaw,,CA,D,Single-ply,Masters 40-46,M,117.5,202.5,,,,202.5,3
Terry Putman,,OK,D,Single-ply,Masters 40-46,M,125,305,,,,305,1
Eric Welch,,NV,D,Single-ply,Masters 40-46,M,125,297.5,,,,297.5,2
Boyd Hurley,,HI,D,Single-ply,Masters 40-46,M,125,240,,,,240,3
Eric Knudsen,,MN,D,Single-ply,Masters 40-46,M,125,197.5,,,,197.5,4
Jim Sheffield #1,,CA,D,Single-ply,Masters 40-46,M,140+,,,,,,DQ
Vincent Eldridge,,WA,D,Single-ply,Masters 40-46,M,140+,320,322.5,,,320,1
Alan Valentin,,HI,D,Single-ply,Masters 40-46,M,140+,257.5,,,,257.5,2
Alfredo Evangelista,,OR,D,Single-ply,Masters 47-53,M,67.5,212.5,,,,212.5,1
Alan Cayer,,ME,D,Single-ply,Masters 47-53,M,75,275,280.5,,,275,1
Richard Cirigliano,,CA,D,Single-ply,Masters 47-53,M,75,245,,,,245,2
Fulton White,,NV,D,Single-ply,Masters 47-53,M,75,237.5,,,,237.5,3
Leamon Woodley,,WA,D,Single-ply,Masters 47-53,M,82.5,317.5,,,,317.5,1
Curtis Wright #1,,GA,D,Single-ply,Masters 47-53,M,82.5,255,,,,255,2
David Brekke,,CO,D,Single-ply,Masters 47-53,M,82.5,222.5,,,,222.5,3
Philip O'Neil,,CA,D,Single-ply,Masters 47-53,M,82.5,205,,,,205,4
Flavio Da Costa Baptista,Brazil,,D,Single-ply,Masters 47-53,M,82.5,140,,,,140,5
Jody Woods,,CA,D,Single-ply,Masters 47-53,M,90,297.5,,,,297.5,1
Sergey Dermelev,Estonia,,D,Single-ply,Masters 47-53,M,90,287.5,,,,287.5,2
Duane Burlingame,,IL,D,Single-ply,Masters 47-53,M,100,295,,,,295,1
Kevin Fisher,,CA,D,Single-ply,Masters 47-53,M,100,287.5,,,,287.5,2
Rick Garcia,,TX,D,Single-ply,Masters 47-53,M,100,272.5,,,,272.5,3
Kim Long,,WI,D,Single-ply,Masters 47-53,M,100,260,,,,260,4
Chad Drecksel,,UT,D,Single-ply,Masters 47-53,M,100,240,,,,240,5
Robert Harris,,NV,D,Single-ply,Masters 47-53,M,100,230,,,,230,6
Carl Mudge,,OR,D,Single-ply,Masters 47-53,M,100,185,,,,185,7
Clinton Sims,,CA,D,Single-ply,Masters 47-53,M,110,305,,,,305,1
Ron L'Huillier,,MI,D,Single-ply,Masters 47-53,M,110,252.5,,,,252.5,2
Steve Gaytan,,CA,D,Single-ply,Masters 47-53,M,110,240,,,,240,3
Gary Stevens,,CA,D,Single-ply,Masters 47-53,M,110,240,,,,240,4
Eddie Morgan #1,,AR,D,Single-ply,Masters 47-53,M,117.5,290,,,,290,1
Keith Huffer,,CA,D,Single-ply,Masters 47-53,M,117.5,247.5,,,,247.5,2
Mark Patrick,,GA,D,Single-ply,Masters 47-53,M,117.5,227.5,,,,227.5,3
Bobby Driskill,,AL,D,Single-ply,Masters 47-53,M,125,317.5,,,,317.5,1
Tim Reeves,,TN,D,Single-ply,Masters 47-53,M,125,262.5,,,,262.5,2
Ken Eyre,,UT,D,Single-ply,Masters 47-53,M,125,200,,,,200,3
Allen Heta,New Zealand,,D,Single-ply,Masters 47-53,M,125,180,,,,180,4
Andy Medak,,WA,D,Single-ply,Masters 47-53,M,140,327.5,,,,327.5,1
Sam Pecktol,,OR,D,Single-ply,Masters 47-53,M,140,310,,,,310,2
Walt Faulkner,,CA,D,Single-ply,Masters 47-53,M,140,280,,,,280,3
Joe Mickelson,,WA,D,Single-ply,Masters 47-53,M,140,277.5,,,,277.5,4
Maarten Roelofs,,UT,D,Single-ply,Masters 47-53,M,140+,227.5,,,,227.5,1
Leo Contreras,,CA,D,Single-ply,Masters 47-53,M,140+,182.5,,,,182.5,2
Gary Bobrovitz,Canada,,D,Single-ply,Masters 54-60,M,60,150,,,,150,1
David Higgins,,WA,D,Single-ply,Masters 54-60,M,67.5,217.5,,,,217.5,1
Gregory Kleyn,,IL,D,Single-ply,Masters 54-60,M,75,235,,,,235,1
Alan Sheen,,LA,D,Single-ply,Masters 54-60,M,75,172.5,,,,172.5,2
Jeff Benesi,,WA,D,Single-ply,Masters 54-60,M,75,162.5,,,,162.5,3
Dennis Cain,,NV,D,Single-ply,Masters 54-60,M,75,132.5,,,,132.5,4
Roberto Contreras #2,,TX,D,Single-ply,Masters 54-60,M,82.5,240,,,,240,1
Gene Alexander,,WA,D,Single-ply,Masters 54-60,M,82.5,237.5,,,,237.5,2
Eric Ansberry,,CA,D,Single-ply,Masters 54-60,M,82.5,215,,,,215,3
Jack Rankin,,WA,D,Single-ply,Masters 54-60,M,82.5,197.5,,,,197.5,4
Ron Jones,,AL,D,Single-ply,Masters 54-60,M,82.5,147.5,,,,147.5,5
Kelly Cain,,NV,D,Single-ply,Masters 54-60,M,82.5,115,,,,115,6
Bob Hochstein,,IL,D,Single-ply,Masters 54-60,M,90,252.5,,,,252.5,1
Mick Stevens,,WA,D,Single-ply,Masters 54-60,M,90,232.5,,,,232.5,2
Godfrey Holzinger,,WA,D,Single-ply,Masters 54-60,M,90,210,,,,210,3
Robert Barna,,PA,D,Single-ply,Masters 54-60,M,90,197.5,,,,197.5,4
Rudy Kadlub,,OR,D,Single-ply,Masters 54-60,M,90,192.5,,,,192.5,5
Kenneth Kirk,,CA,D,Single-ply,Masters 54-60,M,90,167.5,,,,167.5,6
Randy Waldorf,,MN,D,Single-ply,Masters 54-60,M,100,227.5,,,,227.5,1
Peter Murphy,,CA,D,Single-ply,Masters 54-60,M,100,227.5,,,,227.5,2
Cliff Sandberg,,WA,D,Single-ply,Masters 54-60,M,110,272.5,,,,272.5,1
Clifford Ferris,,CA,D,Single-ply,Masters 54-60,M,110,190,,,,190,2
Thomas Wright,,NV,D,Single-ply,Masters 54-60,M,110,185,,,,185,3
Dan Harkins,,WA,D,Single-ply,Masters 54-60,M,117.5,172.5,,,,172.5,1
Tom Morgan,,AR,D,Single-ply,Masters 54-60,M,125,237.5,,,,237.5,1
Larry Pusateri,,PA,D,Single-ply,Masters 54-60,M,125,180,,,,180,2
Martin Montgomery,,IN,D,Single-ply,Masters 61-67,M,75,220,,,,220,1
Moses Timbal,,HI,D,Single-ply,Masters 61-67,M,75,217.5,,,,217.5,2
James Christian #1,,TX,D,Single-ply,Masters 61-67,M,75,212.5,,,,212.5,3
Arlindo da Silva,Brazil,,D,Single-ply,Masters 61-67,M,75,185,,,,185,4
Thomas English,,NV,D,Single-ply,Masters 61-67,M,75,132.5,,,,132.5,5
Robert Krowech,,MN,D,Single-ply,Masters 61-67,M,82.5,260,,,,260,1
Christian Brenol,France,,D,Single-ply,Masters 61-67,M,82.5,190,195,,,190,2
Jim Day,,TN,D,Single-ply,Masters 61-67,M,90,137.5,,,,137.5,1
Vincent Breaux,,LA,D,Single-ply,Masters 61-67,M,100,252.5,,,,252.5,1
Tom Haggenmiller,,MN,D,Single-ply,Masters 61-67,M,100,162.5,,,,162.5,2
Bud Davis,,UT,D,Single-ply,Masters 61-67,M,117.5,272.5,,,,272.5,1
Eldon Olson,,MT,D,Single-ply,Masters 61-67,M,117.5,182.5,,,,182.5,2
Fred Glass,,PA,D,Single-ply,Masters 68-74,M,75,170,,,,170,1
Bill Tinkler,,FL,D,Single-ply,Masters 68-74,M,75,155,,,,155,2
Donald Judd,,AZ,D,Single-ply,Masters 68-74,M,90,172.5,,,,172.5,1
Wilbert Kaimikaua,,HI,D,Single-ply,Masters 68-74,M,100,170,,,,170,1
Lou Corulli,,WA,D,Single-ply,Masters 68-74,M,110,147.5,,,,147.5,1
Robert Cortes,,CA,D,Single-ply,Masters 75-79,M,67.5,205,,,,205,1
Richard Simon,,CA,D,Single-ply,Masters 75-79,M,82.5,155,,,,155,1
James Weiss,,CA,D,Single-ply,Masters 75-79,M,90,125,,,,125,1
George Blue,,IN,D,Single-ply,Masters 75-79,M,100,217.5,,,,217.5,1
Russell Combest,,OH,D,Single-ply,Masters 75-79,M,110,192.5,,,,192.5,1
Arthur Whinston,,OR,D,Single-ply,Masters 80-84,M,67.5,60,64,,,60,1
Edwin Free Jr,,TN,D,Single-ply,Masters 80-84,M,90,132.5,,,,132.5,1
Alexandra Vallejo,,CA,D,Single-ply,Masters 40-46,F,44,127.5,,,,127.5,1
Sandra Herring,,GA,D,Single-ply,Masters 40-46,F,48,122.5,,,,122.5,1
Suzanne Hedman,,CA,D,Single-ply,Masters 40-46,F,52,147.5,,,,147.5,1
Alison Barnhill,,CA,D,Single-ply,Masters 40-46,F,56,142.5,,,,142.5,1
Lynda Christopher,,AZ,D,Single-ply,Masters 40-46,F,56,107.5,,,,107.5,2
Julane Jazzique,,CA,D,Single-ply,Masters 40-46,F,60,105,,,,105,1
Teresa Jacobs,,WA,D,Single-ply,Masters 40-46,F,75,182.5,,,,182.5,1
Eleanora Reeves,,TN,D,Single-ply,Masters 40-46,F,82.5,165,,,,165,1
Elizabeth Harwood,,WA,D,Single-ply,Masters 40-46,F,82.5,137.5,,,,137.5,2
Susan Jackson,,WA,D,Single-ply,Masters 40-46,F,90,175,,,,175,1
Jane Morales,Brazil,,D,Single-ply,Masters 40-46,F,90+,160,,,,160,1
Rauaroha Joy Heta,New Zealand,,D,Single-ply,Masters 40-46,F,90+,130,135,,,130,2
Maria Vermes,,CA,D,Single-ply,Masters 47-53,F,44,110,115,,,110,1
Jeanne Morris,,WA,D,Single-ply,Masters 47-53,F,52,130,133.5,,,130,1
Denise Ruff,,OR,D,Single-ply,Masters 47-53,F,56,170,,,,170,1
Susan Sanaghan,,IN,D,Single-ply,Masters 47-53,F,67.5,110,,,,110,1
Jane Stabile,,MA,D,Single-ply,Masters 47-53,F,75,170,,,,170,1
Jill Struck,,UT,D,Single-ply,Masters 47-53,F,75,105,,,,105,2
Cindy Weber,,TN,D,Single-ply,Masters 47-53,F,82.5,192.5,,,,192.5,1
Pamela Michaels-Olson,,WA,D,Single-ply,Masters 47-53,F,90,155,,,,155,1
Margie Huston,,WA,D,Single-ply,Masters 47-53,F,90+,137.5,,,,137.5,1
Sue Vaterlaus,,CA,D,Single-ply,Masters 47-53,F,90+,120,,,,120,2
Sherry Abblett,,CA,D,Single-ply,Masters 54-60,F,44,92.5,94,,,92.5,1
Victoria Evans,,IN,D,Single-ply,Masters 54-60,F,75,90,,,,90,1
Karen Polansky,,CA,D,Single-ply,Masters 54-60,F,90,165,,,,165,1
Delia Chilgren,,CA,D,Single-ply,Masters 54-60,F,90,115,,,,115,2
Betty Lafferty,,AL,D,Single-ply,Masters 61-67,F,52,92.5,95,,,92.5,1
Dana Backiel,,WA,D,Single-ply,Masters 61-67,F,75,142.5,,,,142.5,1
Judith Petray,,CA,D,Single-ply,Masters 61-67,F,75,137.5,,,,137.5,2
Pat Robey,,WA,D,Single-ply,Masters 61-67,F,82.5,125,,,,125,1
Florence Combest,,OH,D,Single-ply,Masters 68-74,F,67.5,75,,,,75,1
Melicent Whinston,,OR,D,Single-ply,Masters 75-79,F,60,70,,,,70,1
Todd Eggers,,KS,D,Single-ply,Open,M,67.5,242.5,,,,242.5,1
Michael Salemi,,CA,D,Single-ply,Open,M,67.5,232.5,,,,232.5,2
Chris Balanga,,CA,D,Single-ply,Open,M,67.5,232.5,,,,232.5,3
Garette Langmead,,OR,D,Single-ply,Open,M,67.5,227.5,,,,227.5,4
Anthony Russell,,OR,D,Single-ply,Open,M,67.5,190,,,,190,5
Ryan Snelling,,MO,D,Single-ply,Open,M,75,280,,,,280,1
Marchand Fleming,,OK,D,Single-ply,Open,M,75,277.5,,,,277.5,2
Jeremy Benezra,,WA,D,Single-ply,Open,M,75,272.5,,,,272.5,3
Richard Cirigliano,,CA,D,Single-ply,Open,M,75,245,,,,245,4
Andrew Kim #4,,IL,D,Single-ply,Open,M,75,220,,,,220,5
Aaron Benes,,CA,D,Single-ply,Open,M,75,210,,,,210,6
Tom Eiseman,,NJ,D,Single-ply,Open,M,82.5,345,,,,345,1
Leamon Woodley,,WA,D,Single-ply,Open,M,82.5,317.5,,,,317.5,2
Sean Carr,,IL,D,Single-ply,Open,M,82.5,255,,,,255,3
Steve LeMarié,,LA,D,Single-ply,Open,M,90,305,,,,305,1
Jody Woods,,CA,D,Single-ply,Open,M,90,297.5,,,,297.5,2
Luke Richesson,,AZ,D,Single-ply,Open,M,90,272.5,,,,272.5,3
Jared Wilsey,,TN,D,Single-ply,Open,M,90,265,,,,265,4
Jason Perez,,TX,D,Single-ply,Open,M,90,262.5,,,,262.5,5
Tatu Avola,Finland,,D,Single-ply,Open,M,100,340,,,,340,1
Brandon Cass,,MO,D,Single-ply,Open,M,100,340,,,,340,2
Nicklas Friberg,Sweden,,D,Single-ply,Open,M,100,332.5,,,,332.5,3
Chad Herrick,,MI,D,Single-ply,Open,M,100,325,,,,325,4
Duane Burlingame,,IL,D,Single-ply,Open,M,100,295,,,,295,5
Brent Howard,,ME,D,Single-ply,Open,M,100,287.5,,,,287.5,6
George Herring #1,,GA,D,Single-ply,Open,M,110,320,,,,320,1
Al Bianchi,,MA,D,Single-ply,Open,M,110,300,,,,300,2
Kegan Engelke,,WA,D,Single-ply,Open,M,110,282.5,,,,282.5,3
John Anthony,,OR,D,Single-ply,Open,M,110,275,,,,275,4
Ryan Klein,,NV,D,Single-ply,Open,M,117.5,325,,,,325,1
Cameron Field-Eaton,,CA,D,Single-ply,Open,M,117.5,322.5,,,,322.5,2
Patrick Holloway,,AZ,D,Single-ply,Open,M,125,347.5,,,,347.5,1
Jerry Pritchett,,AZ,D,Single-ply,Open,M,125,322.5,,,,322.5,2
Bobby Driskill,,AL,D,Single-ply,Open,M,125,317.5,,,,317.5,3
Terry Putman,,OK,D,Single-ply,Open,M,125,305,,,,305,4
Jari Rosendahl,Finland,,D,Single-ply,Open,M,140,345,,,,345,1
Dave Forstner,,MI,D,Single-ply,Open,M,140,330,,,,330,2
Andy Medak,,WA,D,Single-ply,Open,M,140,327.5,,,,327.5,3
Joe Mickelson,,WA,D,Single-ply,Open,M,140,277.5,,,,277.5,4
Brian Oldham,,UT,D,Single-ply,Open,M,140+,325,,,,325,1
Chris Grantano,,CA,D,Single-ply,Open,M,140+,305,,,,305,2
Alexandra Vallejo,,CA,D,Single-ply,Open,F,44,127.5,,,,127.5,1
Mary Ann Hobbs,,WA,D,Single-ply,Open,F,60,155,,,,155,1
Erica Haislar,,IL,D,Single-ply,Open,F,60,137.5,,,,137.5,2
Patricia Cordova,,CA,D,Single-ply,Open,F,60,137.5,,,,137.5,3
Liisa Penttinen,Finland,,D,Single-ply,Open,F,67.5,167.5,,,,167.5,1
Marie Rochat,,OR,D,Single-ply,Open,F,67.5,165,,,,165,2
Elizabeth Stephens,,CA,D,Single-ply,Open,F,67.5,137.5,,,,137.5,3
Teri Campbell,,NV,D,Single-ply,Open,F,67.5,127.5,,,,127.5,4
Elise Brachtl,,NV,D,Single-ply,Open,F,67.5,127.5,,,,127.5,5
Li Tan-Wu,,WA,D,Single-ply,Open,F,67.5,120,,,,120,6
Kristy Scott,,WA,D,Single-ply,Open,F,75,192.5,,,,192.5,1
Teresa Jacobs,,WA,D,Single-ply,Open,F,75,182.5,,,,182.5,2
Karen Siemssen,,TX,D,Single-ply,Open,F,75,142.5,,,,142.5,3
Christina Robinson,,CA,D,Single-ply,Open,F,75,125,,,,125,4
Christine Neff,,ID,D,Single-ply,Open,F,82.5,207.5,,,,207.5,1
Cindy Weber,,TN,D,Single-ply,Open,F,82.5,192.5,,,,192.5,2
Susan Jackson,,WA,D,Single-ply,Open,F,90,175,,,,175,1
Brooke Bourg,,LA,D,Single-ply,Open,F,90,170,,,,170,2
Heather Gibson,,UT,D,Single-ply,Open,F,90,125,,,,125,3
Nicole Marie Jones,,TX,D,Single-ply,Open,F,90+,175,,,,175,1
Jon Shapiro,,CA,D,Single-ply,Special Olympian,M,67.5,140,,,,140,1
Ismael Diaz,,TX,D,Single-ply,Special Olympian,M,75,100,,,,100,1
Matt Hasner,,SD,D,Single-ply,Special Olympian,M,90,160,,,,160,1
Roberto Ramirez Jr,,TX,D,Single-ply,Special Olympian,M,100,105,,,,105,1
Bobby Lord,,TX,D,Single-ply,Special Olympian,M,117.5,265,,,,265,1
Jock Mayes,,CA,D,Single-ply,Special Olympian,M,140+,165,,,,165,1
Elizandro Vela,,TX,D,Single-ply,Special Olympian,M,140+,152.5,,,,152.5,2
Manuel Vera Jr,,TX,D,Single-ply,Special Olympian,M,140+,140,,,,140,3
Holly James,,CA,D,Single-ply,Special Olympian,F,75,80,,,,80,1
Garette Langmead,,OR,D,Single-ply,Submasters 33-39,M,67.5,227.5,,,,227.5,1
Marchand Fleming,,OK,D,Single-ply,Submasters 33-39,M,75,277.5,,,,277.5,1
Monte Hokoana,,HI,D,Single-ply,Submasters 33-39,M,75,260,,,,260,2
Richard Anderson,,AL,D,Single-ply,Submasters 33-39,M,75,190,,,,190,3
Michael Pettinger,,IL,D,Single-ply,Submasters 33-39,M,82.5,240,,,,240,1
Al Tortorelli,,CA,D,Single-ply,Submasters 33-39,M,90,280,,,,280,1
Adrian Johnson,,GA,D,Single-ply,Submasters 33-39,M,90,277.5,,,,277.5,2
Ed Barnes,,CA,D,Single-ply,Submasters 33-39,M,100,272.5,,,,272.5,1
Jim Casemier,,MI,D,Single-ply,Submasters 33-39,M,110,307.5,,,,307.5,1
Brian Graupmann,,MN,D,Single-ply,Submasters 33-39,M,110,257.5,,,,257.5,2
Dan Tubridy,,CA,D,Single-ply,Submasters 33-39,M,110,235,,,,235,3
Roger Neff,,ID,D,Single-ply,Submasters 33-39,M,117.5,295,,,,295,1
Steve Palano,,UT,D,Single-ply,Submasters 33-39,M,117.5,212.5,,,,212.5,2
Patrick Holloway,,AZ,D,Single-ply,Submasters 33-39,M,125,347.5,,,,347.5,1
Jason Gibson,,UT,D,Single-ply,Submasters 33-39,M,125,287.5,,,,287.5,2
Brandon Bankston,,LA,D,Single-ply,Submasters 33-39,M,125,265,,,,265,3
Dave Forstner,,MI,D,Single-ply,Submasters 33-39,M,140,330,,,,330,1
Brian Oldham,,UT,D,Single-ply,Submasters 33-39,M,140+,342.5,,,,342.5,1
Chris Grantano,,CA,D,Single-ply,Submasters 33-39,M,140+,305,,,,305,2
Christine Kim,Canada,,D,Single-ply,Submasters 33-39,F,52,97.5,105,,,97.5,1
Teri Campbell,,NV,D,Single-ply,Submasters 33-39,F,67.5,127.5,,,,127.5,1
Elise Brachtl,,NV,D,Single-ply,Submasters 33-39,F,67.5,127.5,,,,127.5,2
Disarie Spencer,,CA,D,Single-ply,Submasters 33-39,F,75,160,,,,160,1
Natalie Harmon,,WA,D,Single-ply,Submasters 33-39,F,75,150,,,,150,2
Gwen Cables,,GA,D,Single-ply,Submasters 33-39,F,82.5,142.5,,,,142.5,1
Brooke Bourg,,LA,D,Single-ply,Submasters 33-39,F,90,170,,,,170,1
Chace Akina,,HI,D,Single-ply,Teen 12-13,M,44,105,106.5,,,105,1
Cory Grizzle,,OR,D,Single-ply,Teen 12-13,M,44,62.5,,,,62.5,2
Amos Grizzle,,OR,D,Single-ply,Teen 12-13,M,56,72.5,,,,72.5,1
Christian Bird,,WA,D,Single-ply,Teen 12-13,M,60,87.5,,,,87.5,1
John Meinersmann,,GA,D,Single-ply,Teen 12-13,M,67.5,92.5,,,,92.5,1
Jordan Gibson #1,,UT,D,Single-ply,Teen 12-13,M,90,175,,,,175,1
Zach Dwinell,,OK,D,Single-ply,Teen 14-15,M,56,132.5,,,,132.5,1
Ryan Lund,,UT,D,Single-ply,Teen 14-15,M,67.5,160,,,,160,1
Trevor English,,NV,D,Single-ply,Teen 14-15,M,75,102.5,,,,102.5,1
Matt Phipps,,NV,D,Single-ply,Teen 14-15,M,82.5,155,,,,155,1
Jake Garbush,,WA,D,Single-ply,Teen 14-15,M,90,217.5,233,,,217.5,1
Jesse Triplett,,OK,D,Single-ply,Teen 14-15,M,100,237.5,,,,237.5,1
Henry Yee Hoy,,HI,D,Single-ply,Teen 14-15,M,100,227.5,238,,,227.5,2
Mike Walsh #2,,MN,D,Single-ply,Teen 14-15,M,110,152.5,,,,152.5,1
Levi Wright,,GA,D,Single-ply,Teen 14-15,M,125,237.5,,,,237.5,1
Richard Baxter Hunt,,GA,D,Single-ply,Teen 16-19,M,52,142.5,,,,142.5,1
Nick Lenhart,,UT,D,Single-ply,Teen 16-19,M,60,220,,,,220,1
Travis Belen,,WA,D,Single-ply,Teen 16-19,M,60,167.5,,,,167.5,2
Michael Salemi,,CA,D,Single-ply,Teen 16-19,M,67.5,232.5,,,,232.5,1
Anthony Ramos,,GA,D,Single-ply,Teen 16-19,M,67.5,190,,,,190,2
Anthony Russell,,OR,D,Single-ply,Teen 16-19,M,67.5,190,,,,190,3
Donnie Miskinis,,OH,D,Single-ply,Teen 16-19,M,67.5,177.5,,,,177.5,4
Raul Bazan,,TX,D,Single-ply,Teen 16-19,M,67.5,165,,,,165,5
Michael Drew,,OR,D,Single-ply,Teen 16-19,M,67.5,165,,,,165,6
Simon McKee,,CA,D,Single-ply,Teen 16-19,M,67.5,160,,,,160,7
Cervantes Hernandez Moretra,Dominican Republic,,D,Single-ply,Teen 16-19,M,67.5,137.5,,,,137.5,8
Barry Folgate,,IL,D,Single-ply,Teen 16-19,M,75,210,,,,210,1
Brett Faught,,IL,D,Single-ply,Teen 16-19,M,75,165,,,,165,2
Jose Perez #3,,TX,D,Single-ply,Teen 16-19,M,82.5,220,,,,220,1
Kyle Brule,,GA,D,Single-ply,Teen 16-19,M,82.5,197.5,,,,197.5,2
Matthew Barras,,TX,D,Single-ply,Teen 16-19,M,82.5,145,,,,145,3
Hunter Beall,,LA,D,Single-ply,Teen 16-19,M,90,260,,,,260,1
Hugo Sanchez,,TX,D,Single-ply,Teen 16-19,M,90,247.5,,,,247.5,2
Daniel Winslow,,ID,D,Single-ply,Teen 16-19,M,100,275,,,,275,1
Du Juan Calvo,,TX,D,Single-ply,Teen 16-19,M,100,255,,,,255,2
Andrew Garcia,,TX,D,Single-ply,Teen 16-19,M,100,207.5,,,,207.5,3
Simran Randhawa,,CA,D,Single-ply,Teen 16-19,M,100,205,,,,205,4
Adam Contreras #1,,CA,D,Single-ply,Teen 16-19,M,100,170,,,,170,5
Tim Peterson,,CA,D,Single-ply,Teen 16-19,M,110,265,,,,265,1
Max McKee,,CA,D,Single-ply,Teen 16-19,M,117.5,227.5,,,,227.5,1
David Willaman,,OH,D,Single-ply,Teen 16-19,M,125,235,,,,235,1
Dalfred Kalani Kaipo,,HI,D,Single-ply,Teen 16-19,M,125,205,,,,205,2
Kevin Romano,,GA,D,Single-ply,Teen 16-19,M,140,222.5,,,,222.5,1
Joshua Burgess,,HI,D,Single-ply,Teen 16-19,M,140+,250,,,,250,1
Cheyenne Tavares,,HI,D,Single-ply,Teen 12-13,F,44,80,,,,80,1
Ali Miskinis,,OH,D,Single-ply,Teen 12-13,F,48,65,,,,65,1
Amanda Harris,,TX,D,Single-ply,Teen 14-15,F,52,120,,,,120,1
Brooke Dombos,,OH,D,Single-ply,Teen 14-15,F,60,105,,,,105,1
Sarah Biddle,,IN,D,Single-ply,Teen 14-15,F,60,95,,,,95,2
Kayla Sua,,WA,D,Single-ply,Teen 14-15,F,90,175,,,,175,1
Brittany Burroughs,,GA,D,Single-ply,Teen 16-19,F,52,62.5,,,,62.5,1
Courtney Gathright,,TX,D,Single-ply,Teen 16-19,F,82.5,142.5,,,,142.5,1
Jennifer Otto,,WA,D,Single-ply,Teen 16-19,F,82.5,137.5,,,,137.5,2
Abigail Biddle,,IN,D,Single-ply,Teen 16-19,F,82.5,137.5,,,,137.5,3
Hannah Biddle,,IN,D,Single-ply,Teen 16-19,F,90,125,,,,125,1
Rebecca Jordan,,AL,D,Single-ply,Teen 16-19,F,90+,187.5,,,,187.5,1
Katie Sons,,TX,D,Single-ply,Teen 16-19,F,90+,157.5,,,,157.5,2
Travis Belen,,WA,B,Multi-ply,Class 1,M,60,,,132.5,,132.5,1
Nick Lenhart,,UT,B,Multi-ply,Class 1,M,60,,,130,,130,2
Barry Kunkel,,OR,B,Multi-ply,Class 1,M,67.5,,,152.5,,152.5,1
William Vargas,,MN,B,Multi-ply,Class 1,M,67.5,,,147.5,,147.5,2
Kenny Poitevint,,GA,B,Multi-ply,Class 1,M,67.5,,,147.5,,147.5,3
Darwin Dessau,,PA,B,Multi-ply,Class 1,M,67.5,,,140,,140,4
Spencer Cole,,WA,B,Multi-ply,Class 1,M,67.5,,,137.5,,137.5,5
Jon Shapiro,,CA,B,Multi-ply,Class 1,M,67.5,,,115,,115,6
Jonas Anderbring,Sweden,,B,Multi-ply,Class 1,M,75,,,142.5,,142.5,1
Jason Dorsey,,WA,B,Multi-ply,Class 1,M,75,,,142.5,,142.5,2
Roger Cole,,WA,B,Multi-ply,Class 1,M,75,,,142.5,,142.5,3
Jason La Reaux,,NV,B,Multi-ply,Class 1,M,75,,,127.5,,127.5,4
Mark Reuer,,SD,B,Multi-ply,Class 1,M,75,,,127.5,,127.5,5
Richard Derengowski,,IL,B,Multi-ply,Class 1,M,82.5,,,195,,195,1
Danny Russo,,CA,B,Multi-ply,Class 1,M,82.5,,,185,,185,2
Scott Miller,,AL,B,Multi-ply,Class 1,M,82.5,,,185,,185,3
Jerry Huddleston,,AL,B,Multi-ply,Class 1,M,82.5,,,170,,170,4
Corey Plumb,,AL,B,Multi-ply,Class 1,M,82.5,,,165,,165,5
Mark Laurel,,CA,B,Multi-ply,Class 1,M,82.5,,,145,,145,6
Hae-Ryong Chung,South Korea,,B,Multi-ply,Class 1,M,82.5,,,142.5,145,142.5,7
Jason Carson,,IL,B,Multi-ply,Class 1,M,90,,,205,,205,1
Ernest Reyes,,UT,B,Multi-ply,Class 1,M,90,,,200,,200,2
David Salinas,,TX,B,Multi-ply,Class 1,M,90,,,195,,195,3
Brandyn Akamine,,HI,B,Multi-ply,Class 1,M,90,,,190,,190,4
Ahmed Abukhater,Palestine,,B,Single-ply,Class 1,M,90,,,185,,185,1
Earl Solidum,,HI,B,Multi-ply,Class 1,M,90,,,185,,185,5
David Bickerstaff,,TX,B,Multi-ply,Class 1,M,90,,,182.5,,182.5,6
Kevin Sawyer,,OK,B,Multi-ply,Class 1,M,90,,,182.5,,182.5,7
Starkey Hedger,,IL,B,Multi-ply,Class 1,M,90,,,175,,175,8
Brandon Alvarez,,NV,B,Multi-ply,Class 1,M,90,,,175,,175,9
Reid Solar,,AZ,B,Multi-ply,Class 1,M,90,,,157.5,,157.5,10
Tyler Tebbets,,WA,B,Multi-ply,Class 1,M,90,,,155,,155,11
Landon Cross,,IL,B,Multi-ply,Class 1,M,90,,,155,,155,12
Eddie Mendez,,IA,B,Multi-ply,Class 1,M,90,,,155,,155,13
Hunter Beall,,LA,B,Multi-ply,Class 1,M,90,,,147.5,,147.5,14
Will Beavers,,CA,B,Multi-ply,Class 1,M,100,,,,,,DQ
John Lambert,,IA,B,Multi-ply,Class 1,M,100,,,,,,DQ
Rodney Womack,,TX,B,Multi-ply,Class 1,M,100,,,215,,215,1
Chris Martinez,,TX,B,Multi-ply,Class 1,M,100,,,210,,210,2
Ted Ornduff,,CA,B,Multi-ply,Class 1,M,100,,,205,,205,3
Thomas Reiher,,HI,B,Multi-ply,Class 1,M,100,,,205,,205,4
Bruce Nichols,,NV,B,Multi-ply,Class 1,M,100,,,197.5,,197.5,5
Apolonio Jauregui,,CA,B,Multi-ply,Class 1,M,100,,,192.5,,192.5,6
Joaquin Perez,,CA,B,Multi-ply,Class 1,M,100,,,190,,190,7
Richard Pichardo,,CA,B,Multi-ply,Class 1,M,100,,,182.5,,182.5,8
Matt Olson,,OR,B,Multi-ply,Class 1,M,100,,,167.5,,167.5,9
Austin Hodge,,TX,B,Multi-ply,Class 1,M,110,,,215,,215,1
Heath Szejn,,AZ,B,Multi-ply,Class 1,M,110,,,210,,210,2
Richard Zareck,,FL,B,Multi-ply,Class 1,M,110,,,190,,190,3
Paul Mercado,,IL,B,Multi-ply,Class 1,M,110,,,187.5,,187.5,4
Travis McCormick,,OR,B,Multi-ply,Class 1,M,110,,,185,,185,5
Jonathon Kos,,NV,B,Multi-ply,Class 1,M,110,,,145,,145,6
Tom Pennella,,WA,B,Multi-ply,Class 1,M,117.5,,,215,,215,1
Gene Loss,,OR,B,Multi-ply,Class 1,M,117.5,,,197.5,,197.5,2
Bill Bidinotto,,OH,B,Multi-ply,Class 1,M,117.5,,,185,,185,3
Brad Cikana,,CA,B,Multi-ply,Class 1,M,125,,,242.5,,242.5,1
Kenneth Scroggins,,AR,B,Multi-ply,Class 1,M,125,,,232.5,,232.5,2
Terry Putman,,OK,B,Multi-ply,Class 1,M,125,,,207.5,,207.5,3
Eric Welch,,NV,B,Multi-ply,Class 1,M,125,,,195,,195,4
Dave Ewen,,IN,B,Multi-ply,Class 1,M,125,,,185,,185,5
Bill Alex,,CA,B,Multi-ply,Class 1,M,140,,,245,,245,1
Leo Contreras,,CA,B,Multi-ply,Class 1,M,140+,,,192.5,,192.5,1
Maarten Roelofs,,UT,B,Multi-ply,Class 1,M,140+,,,192.5,,192.5,2
Michael Aguanno,,NY,B,Multi-ply,Disabled,M,56,,,55,,55,1
Blake Harper,Canada,,B,Multi-ply,Disabled,M,75,,,152.5,,152.5,1
Steve Baker,Canada,,B,Multi-ply,Disabled,M,75,,,50,,50,2
Anthony Kokell,,NY,B,Multi-ply,Disabled,M,82.5,,,107.5,,107.5,1
Hector Montoya,,TX,B,Multi-ply,Disabled,M,90,,,170,,170,1
Gregory Gibson,,TN,B,Multi-ply,Disabled,M,90,,,82.5,,82.5,2
Jarnail Singh Birring,UK,,B,Multi-ply,Disabled,M,100,,,177.5,,177.5,1
Sean McGrath,,NY,B,Multi-ply,Disabled,M,100,,,147.5,,147.5,2
Dale West,,ID,B,Multi-ply,Disabled,M,100,,,145,,145,3
Cody Colchado,,TX,B,Multi-ply,Disabled,M,110,,,202.5,,202.5,1
Sally Thomas,Canada,,B,Multi-ply,Disabled,F,44,,,67.5,,67.5,1
Mary Stack,,MI,B,Multi-ply,Disabled,F,90,,,115,,115,1
Bridggett Brown,,GA,B,Multi-ply,Disabled,F,90+,,,75,79,75,1
Kerwin Unten,,HI,B,Multi-ply,Elite Open,M,67.5,,,227.5,,227.5,1
Jason Imamura,,HI,B,Multi-ply,Elite Open,M,67.5,,,205,,205,2
Brandon Leming,,TN,B,Multi-ply,Elite Open,M,75,,,,,,DQ
Ryan Harris,,OR,B,Multi-ply,Elite Open,M,82.5,,,,,,DQ
Trey Jewett,,TX,B,Multi-ply,Elite Open,M,90,,,287.5,,287.5,1
Gustavo Warrington,,OR,B,Multi-ply,Elite Open,M,90,,,257.5,,257.5,2
Michael Green,,FL,B,Multi-ply,Elite Open,M,100,,,300,,300,1
Kenneth Millrany,,TN,B,Multi-ply,Elite Open,M,100,,,260,,260,2
Jason Jackson #7,,OK,B,Multi-ply,Elite Open,M,110,,,365,,365,1
Mike Womack #1,,CA,B,Single-ply,Elite Open,M,125,,,352.5,,352.5,1
Tommy Harrison,,IL,B,Multi-ply,Elite Open,M,125,,,330,,330,1
Tiny Meeker,,TX,B,Single-ply,Elite Open,M,140,,,,,,DQ
Mark Lauricella,,CA,B,Multi-ply,Juniors 20-25,M,67.5,,,137.5,,137.5,1
Andrew Kim #4,,IL,B,Multi-ply,Juniors 20-25,M,75,,,227.5,235,227.5,1
Willard Crossen III,,WA,B,Multi-ply,Juniors 20-25,M,75,,,202.5,,202.5,2
John Alves,,CA,B,Multi-ply,Juniors 20-25,M,75,,,200,,200,3
Laramie McMasters,,IL,B,Multi-ply,Juniors 20-25,M,75,,,130,,130,4
Charles West,,IL,B,Multi-ply,Juniors 20-25,M,75,,,122.5,,122.5,5
Joe Stafford,,OR,B,Multi-ply,Juniors 20-25,M,82.5,,,202.5,,202.5,1
Richard Derengowski,,IL,B,Multi-ply,Juniors 20-25,M,82.5,,,195,,195,2
Scott Miller,,AL,B,Multi-ply,Juniors 20-25,M,82.5,,,185,,185,3
Brent Dreger,,IL,B,Multi-ply,Juniors 20-25,M,82.5,,,165,,165,4
Corey Plumb,,AL,B,Multi-ply,Juniors 20-25,M,82.5,,,165,,165,5
Jeremy Benezra,,WA,B,Multi-ply,Juniors 20-25,M,82.5,,,160,,160,6
Sean Carr,,IL,B,Multi-ply,Juniors 20-25,M,82.5,,,150,,150,7
Jonathan Olson,,UT,B,Multi-ply,Juniors 20-25,M,82.5,,,137.5,,137.5,8
Matt Carlin,,PA,B,Multi-ply,Juniors 20-25,M,90,,,,,,DQ
Sean Mahoney,,OR,B,Multi-ply,Juniors 20-25,M,90,,,,,,DQ
Trey Jewett,,TX,B,Multi-ply,Juniors 20-25,M,90,,,287.5,,287.5,1
Earl Solidum,,HI,B,Multi-ply,Juniors 20-25,M,90,,,185,,185,2
Jason Perez,,TX,B,Multi-ply,Juniors 20-25,M,90,,,182.5,,182.5,3
Ben Cantrell,,IL,B,Multi-ply,Juniors 20-25,M,90,,,162.5,,162.5,4
Landon Cross,,IL,B,Multi-ply,Juniors 20-25,M,90,,,155,,155,5
Jason Smith #7,,AZ,B,Multi-ply,Juniors 20-25,M,100,,,,,,DQ
Matt Cole,,IL,B,Multi-ply,Juniors 20-25,M,100,,,245,,245,1
Sean DeMarinis,,CA,B,Multi-ply,Juniors 20-25,M,100,,,230,,230,2
Dalton Wilson,,GA,B,Multi-ply,Juniors 20-25,M,100,,,205,,205,3
Matt Bell,,IL,B,Multi-ply,Juniors 20-25,M,100,,,205,,205,4
Kyle Herzik,,NV,B,Multi-ply,Juniors 20-25,M,100,,,185,,185,5
Michael Minahan,,CA,B,Multi-ply,Juniors 20-25,M,100,,,160,,160,6
Jonathon Kos,,NV,B,Multi-ply,Juniors 20-25,M,110,,,145,,145,1
Mike Womack #1,,CA,B,Single-ply,Juniors 20-25,M,125,,,352.5,,352.5,1
Jerry Pritchett,,AZ,B,Multi-ply,Juniors 20-25,M,125,,,242.5,,242.5,1
David McCoy,,IL,B,Multi-ply,Juniors 20-25,M,125,,,227.5,,227.5,2
Josh Stevens,,GA,B,Multi-ply,Juniors 20-25,M,125,,,185,,185,3
Dave Ewen,,IN,B,Multi-ply,Juniors 20-25,M,125,,,185,,185,4
Jason Nindorf,,TX,B,Multi-ply,Juniors 20-25,M,140,,,265,,265,1
Nathan Baptist,,UT,B,Multi-ply,Juniors 20-25,M,140+,,,217.5,,217.5,1
Erica Ansberry,,CA,B,Multi-ply,Juniors 20-25,F,60,,,,,,DQ
Cortney Postell,,GA,B,Multi-ply,Juniors 20-25,F,67.5,,,92.5,,92.5,1
Marletta Boyd II,,WA,B,Multi-ply,Juniors 20-25,F,67.5,,,90,,90,2
LeeRoy Banks,,IL,B,Multi-ply,Law-Fire 40-47,M,90,,,202.5,,202.5,1
Ted Ornduff,,CA,B,Multi-ply,Law-Fire 40-47,M,100,,,205,,205,1
Al Kennedy,,IL,B,Multi-ply,Law-Fire 40-47,M,100,,,140,,140,2
Allen Heta,New Zealand,,B,Multi-ply,Law-Fire 40-47,M,125,,,170,,170,1
Mike Berteaux,,CO,B,Multi-ply,Law-Fire 48-55,M,100,,,232.5,,232.5,1
David Martinez #7,,CA,B,Multi-ply,Law-Fire 48-55,M,100,,,192.5,,192.5,2
Bruce Sabin,,CA,B,Multi-ply,Law-Fire 48-55,M,140,,,245,,245,1
Michal Johnson,,CA,B,Multi-ply,Law-Fire 48-55,M,140+,,,62.5,,62.5,1
Jerry Dye,,CA,B,Multi-ply,Law-Fire 56+,M,90,,,145,147.5,145,1
Eldon Olson,,MT,B,Multi-ply,Law-Fire 56+,M,117.5,,,167.5,,167.5,1
Robert Lincoln,,CA,B,Multi-ply,Law-Fire 56+,M,125,,,227.5,,227.5,1
Leticia Rosales-Buie,,CA,B,Multi-ply,Law-Fire 40-47,F,56,,,67.5,,67.5,1
Daniele McCollum,,CA,B,Multi-ply,Law-Fire 40-47,F,75,,,112.5,,112.5,1
Rauaroha Joy Heta,New Zealand,,B,Multi-ply,Law-Fire 40-47,F,90+,,,70,,70,1
Alfred Jackson,,WA,B,Multi-ply,Law-Fire Open,M,75,,,175,,175,1
Mike Ryan,,MI,B,Multi-ply,Law-Fire Open,M,82.5,,,197.5,,197.5,1
Mike Ioannou,,MA,B,Multi-ply,Law-Fire Open,M,82.5,,,170,,170,2
Wayne Prose,,IL,B,Multi-ply,Law-Fire Open,M,90,,,227.5,,227.5,1
Joe Vega #3,,TX,B,Multi-ply,Law-Fire Open,M,90,,,192.5,,192.5,2
David Bickerstaff,,TX,B,Multi-ply,Law-Fire Open,M,90,,,182.5,,182.5,3
Tyler Tebbets,,WA,B,Multi-ply,Law-Fire Open,M,90,,,155,,155,4
Sean Boyle,,WA,B,Multi-ply,Law-Fire Open,M,100,,,227.5,,227.5,1
Andrew Porter,,CA,B,Multi-ply,Law-Fire Open,M,110,,,,,,DQ
Jason Jackson #7,,OK,B,Multi-ply,Law-Fire Open,M,110,,,365,,365,1
Richard Niemritz,,WA,B,Multi-ply,Law-Fire Open,M,110,,,220,,220,2
Devin Tallerico,,CA,B,Multi-ply,Law-Fire Open,M,110,,,182.5,,182.5,3
Marc Zingaro,,PA,B,Multi-ply,Law-Fire Open,M,117.5,,,295,,295,1
Tim Prince,,UT,B,Multi-ply,Law-Fire Open,M,117.5,,,212.5,,212.5,2
Tommy Harrison,,IL,B,Multi-ply,Law-Fire Open,M,125,,,345,,345,1
Jaime Tovar,,CA,B,Multi-ply,Law-Fire Open,M,125,,,287.5,,287.5,2
Carl Wimmer,,UT,B,Multi-ply,Law-Fire Open,M,125,,,240,,240,3
Ricardo Nort,Brazil,,B,Multi-ply,Law-Fire Open,M,140,,,262.5,,262.5,1
Frank Sua,,WA,B,Multi-ply,Law-Fire Open,M,140,,,230,,230,2
Marcus Austin,,OK,B,Multi-ply,Law-Fire Open,M,140,,,205,,205,3
Chane Cline,,OH,B,Multi-ply,Law-Fire Open,M,140+,,,265,,265,1
Lynda Christopher,,AZ,B,Multi-ply,Law-Fire Open,F,56,,,55,,55,1
Laurie Lamp,,WA,B,Multi-ply,Law-Fire Open,F,60,,,87.5,,87.5,1
Kim Carter,,IL,B,Multi-ply,Law-Fire Open,F,67.5,,,112.5,,112.5,1
Abigail Biddle,,IN,B,Multi-ply,Law-Fire Open,F,90,,,62.5,,62.5,1
Richard Anderson,,AL,B,Multi-ply,Law-Fire Submasters,M,75,,,130,,130,1
Anton White,,IL,B,Multi-ply,Law-Fire Submasters,M,82.5,,,185,,185,1
Jon Kobayashi,,HI,B,Multi-ply,Law-Fire Submasters,M,100,,,235,,235,1
John DeLuca,,CA,B,Single-ply,Law-Fire Submasters,M,100,,,217.5,,217.5,1
Frank Wakakuwa,,HI,B,Multi-ply,Law-Fire Submasters,M,110,,,,,,DQ
Richard Niemritz,,WA,B,Multi-ply,Law-Fire Submasters,M,110,,,220,,220,1
Cliff Wicks,,NV,B,Multi-ply,Law-Fire Submasters,M,110,,,200,,200,2
Jim Casemier,,MI,B,Multi-ply,Law-Fire Submasters,M,110,,,185,,185,3
Devin Tallerico,,CA,B,Multi-ply,Law-Fire Submasters,M,110,,,182.5,,182.5,4
Marc Zingaro,,PA,B,Multi-ply,Law-Fire Submasters,M,117.5,,,295,,295,1
Joe Dibert,,IN,B,Multi-ply,Law-Fire Submasters,M,125,,,267.5,,267.5,1
Ricardo Nort,Brazil,,B,Multi-ply,Law-Fire Submasters,M,140,,,262.5,,262.5,1
John Filas,,AZ,B,Multi-ply,Law-Fire Submasters,M,140,,,215,,215,2
Keoni Reich,,HI,B,Multi-ply,Law-Fire Submasters,M,140+,,,240,,240,1
Michael Aguanno,,NY,B,Multi-ply,Masters 40-46,M,56,,,62.5,,62.5,1
Charles Venturella,,PA,B,Multi-ply,Masters 40-46,M,67.5,,,177.5,,177.5,1
Arun Sharma,India,,B,Multi-ply,Masters 40-46,M,67.5,,,147.5,,147.5,2
Kenny Poitevint,,GA,B,Multi-ply,Masters 40-46,M,67.5,,,147.5,,147.5,3
Adolfo Davila,,CA,B,Multi-ply,Masters 40-46,M,75,,,215,230,215,1
Sean Kearney,,FL,B,Multi-ply,Masters 40-46,M,75,,,147.5,,147.5,2
Roger Cole,,WA,B,Multi-ply,Masters 40-46,M,75,,,142.5,,142.5,3
Keith Cunningham,,WA,B,Multi-ply,Masters 40-46,M,75,,,125,,125,4
James Noblit,,OR,B,Multi-ply,Masters 40-46,M,82.5,,,,,,DQ
Jon Cunningham,,UT,B,Multi-ply,Masters 40-46,M,82.5,,,217.5,225.5,217.5,1
Bob Levering,,CA,B,Multi-ply,Masters 40-46,M,82.5,,,215,,215,2
Dean Reiman,,MN,B,Multi-ply,Masters 40-46,M,82.5,,,215,,215,3
Darren Carr,,UT,B,Multi-ply,Masters 40-46,M,82.5,,,200,,200,4
Mark Lo,,HI,B,Multi-ply,Masters 40-46,M,82.5,,,172.5,,172.5,5
Jeff Woods,,OH,B,Multi-ply,Masters 40-46,M,82.5,,,170,,170,6
Mike Ioannou,,MA,B,Multi-ply,Masters 40-46,M,82.5,,,170,,170,7
Fred Stokes,,MI,B,Multi-ply,Masters 40-46,M,82.5,,,147.5,,147.5,8
Vilmar Oliveira,Brazil,,B,Multi-ply,Masters 40-46,M,82.5,,,140,,140,9
Michael Happach,,IL,B,Multi-ply,Masters 40-46,M,90,,,,,,DQ
Charles Phillips,,AL,B,Multi-ply,Masters 40-46,M,90,,,,,,DQ
Rick Brewer,,TX,B,Multi-ply,Masters 40-46,M,90,,,210,,210,1
Wendell Omura,,HI,B,Multi-ply,Masters 40-46,M,90,,,210,,210,2
Brian Baertlein,,OR,B,Multi-ply,Masters 40-46,M,90,,,205,,205,3
LeeRoy Banks,,IL,B,Multi-ply,Masters 40-46,M,90,,,205,,205,4
Mark Johnson #16,,IN,B,Multi-ply,Masters 40-46,M,90,,,172.5,,172.5,5
Darrell Horn,,MI,B,Multi-ply,Masters 40-46,M,90,,,170,,170,6
Gregory Gibson,,TN,B,Multi-ply,Masters 40-46,M,90,,,82.5,,82.5,7
Kenneth Millrany,,TN,B,Multi-ply,Masters 40-46,M,100,,,257.5,,257.5,1
Doug Haycraft,,IL,B,Multi-ply,Masters 40-46,M,100,,,255,,255,2
Glenn Villarmia,,HI,B,Multi-ply,Masters 40-46,M,100,,,250,,250,3
Lance Fuhrman,,WA,B,Multi-ply,Masters 40-46,M,100,,,245,,245,4
Juha Pukkila,Finland,,B,Multi-ply,Masters 40-46,M,100,,,217.5,,217.5,5
Rodney Womack,,TX,B,Multi-ply,Masters 40-46,M,100,,,215,,215,6
Jeff Alvari,,UT,B,Multi-ply,Masters 40-46,M,100,,,210,,210,7
Mike DeGennaro,,CA,B,Multi-ply,Masters 40-46,M,100,,,200,,200,8
Anthony Woods,,NV,B,Multi-ply,Masters 40-46,M,100,,,197.5,,197.5,9
Richard Pichardo,,CA,B,Multi-ply,Masters 40-46,M,100,,,182.5,,182.5,10
Steven Petersen,,TX,B,Multi-ply,Masters 40-46,M,100,,,172.5,,172.5,11
John Pfeiffer,,OH,B,Multi-ply,Masters 40-46,M,100,,,150,,150,12
Mike Healy,,CA,B,Multi-ply,Masters 40-46,M,100,,,,,,DQ
Russ Kitani,,TX,B,Multi-ply,Masters 40-46,M,110,,,,,,DQ
Ed Macauley,,OR,B,Multi-ply,Masters 40-46,M,110,,,237.5,,237.5,1
Kent Doerfler,,OR,B,Multi-ply,Masters 40-46,M,110,,,205,,205,2
Cody Colchado,,TX,B,Multi-ply,Masters 40-46,M,110,,,202.5,,202.5,3
Phillip Arroyo,,WA,B,Multi-ply,Masters 40-46,M,110,,,200,,200,4
Donnie Hamblin,,AZ,B,Multi-ply,Masters 40-46,M,110,,,195,,195,5
George Phipps,,NV,B,Multi-ply,Masters 40-46,M,110,,,195,,195,6
John Schaer,,OR,B,Multi-ply,Masters 40-46,M,117.5,,,,,,DQ
Jason Laskowski,,TX,B,Multi-ply,Masters 40-46,M,117.5,,,340,,340,1
Patrick Parnell,,TX,B,Multi-ply,Masters 40-46,M,117.5,,,320,,320,2
Scott Hoekstra,,CA,B,Multi-ply,Masters 40-46,M,117.5,,,285,,285,3
Todd Christensen,,WA,B,Multi-ply,Masters 40-46,M,117.5,,,242.5,,242.5,4
Darwin English,,NV,B,Multi-ply,Masters 40-46,M,117.5,,,225,,225,5
David Vasquez,,CA,B,Multi-ply,Masters 40-46,M,117.5,,,205,,205,6
Nils Sjödin,Sweden,,B,Multi-ply,Masters 40-46,M,125,,,300,,300,1
Rich Ludlam,,CA,B,Multi-ply,Masters 40-46,M,125,,,280,,280,2
Eric Doublin,,TX,B,Multi-ply,Masters 40-46,M,125,,,260,,260,3
Terry Putman,,OK,B,Multi-ply,Masters 40-46,M,125,,,207.5,,207.5,4
Eric Welch,,NV,B,Multi-ply,Masters 40-46,M,125,,,195,,195,5
Eric Knudsen,,MN,B,Multi-ply,Masters 40-46,M,125,,,195,,195,6
Vic Aleaga,,WA,B,Multi-ply,Masters 40-46,M,140,,,,,,DQ
Jeff Peshek,,OH,B,Multi-ply,Masters 40-46,M,140,,,352.5,,352.5,1
Ken Overbey,,AL,B,Multi-ply,Masters 40-46,M,140,,,290,,290,2
Eddie Aleaga,,WA,B,Multi-ply,Masters 40-46,M,140+,,,,,,DQ
Jim Sheffield #1,,CA,B,Multi-ply,Masters 40-46,M,140+,,,282.5,,282.5,1
Alfredo Evangelista,,OR,B,Multi-ply,Masters 47-53,M,67.5,,,177.5,,177.5,1
Eric Carmichel,,AZ,B,Multi-ply,Masters 47-53,M,75,,,165,,165,1
Fulton White,,NV,B,Multi-ply,Masters 47-53,M,75,,,130,,130,2
Jody Fjelstad,,MN,B,Multi-ply,Masters 47-53,M,82.5,,,170,,170,1
Paul Janoff,,CA,B,Multi-ply,Masters 47-53,M,82.5,,,170,,170,2
Alan Traylor,,GA,B,Multi-ply,Masters 47-53,M,82.5,,,150,,150,3
Flavio Da Costa Baptista,Brazil,,B,Multi-ply,Masters 47-53,M,82.5,,,130,,130,4
Paul Radmilovich,,OK,B,Multi-ply,Masters 47-53,M,82.5,,,117.5,,117.5,5
Mark Knutson,,OK,B,Multi-ply,Masters 47-53,M,82.5,,,112.5,,112.5,6
Anthony Kokell,,NY,B,Multi-ply,Masters 47-53,M,82.5,,,112.5,,112.5,7
Jody Woods,,CA,B,Multi-ply,Masters 47-53,M,90,,,215,,215,1
Ernest Reyes,,UT,B,Multi-ply,Masters 47-53,M,90,,,200,,200,2
Greg Alves,,CA,B,Multi-ply,Masters 47-53,M,90,,,192.5,,192.5,3
Hector Montoya,,TX,B,Multi-ply,Masters 47-53,M,90,,,170,,170,4
William Stirling,Canada,,B,Multi-ply,Masters 47-53,M,90,,,160,,160,5
Reid Solar,,AZ,B,Multi-ply,Masters 47-53,M,90,,,157.5,,157.5,6
Herb Williams,,CA,B,Multi-ply,Masters 47-53,M,90,,,132.5,,132.5,7
Raj Pal,India,,B,Multi-ply,Masters 47-53,M,90,,,115,,115,8
Mike Berteaux,,CO,B,Multi-ply,Masters 47-53,M,100,,,232.5,,232.5,1
Nick Dwinell,,OK,B,Multi-ply,Masters 47-53,M,100,,,215,,215,2
Robert Harris,,NV,B,Multi-ply,Masters 47-53,M,100,,,210,,210,3
Chad Drecksel,,UT,B,Multi-ply,Masters 47-53,M,100,,,187.5,,187.5,4
Al Kennedy,,IL,B,Multi-ply,Masters 47-53,M,100,,,172.5,,172.5,5
Mauri Cole,,AR,B,Multi-ply,Masters 47-53,M,100,,,150,,150,6
Clinton Sims,,CA,B,Multi-ply,Masters 47-53,M,110,,,252.5,,252.5,1
Frank McLaughlin,,PA,B,Multi-ply,Masters 47-53,M,110,,,252.5,257.5,252.5,2
Gary Stevens,,CA,B,Multi-ply,Masters 47-53,M,110,,,192.5,,192.5,3
Ron L'Huillier,,MI,B,Multi-ply,Masters 47-53,M,110,,,165,,165,4
Willard Crossen Jr,,WA,B,Multi-ply,Masters 47-53,M,117.5,,,250,,250,1
Mark Patrick,,GA,B,Multi-ply,Masters 47-53,M,117.5,,,192.5,,192.5,2
Forest Hofer,,WA,B,Multi-ply,Masters 47-53,M,125,,,,,,DQ
Roger Ryan,,IL,B,Multi-ply,Masters 47-53,M,125,,,290,,290,1
Chris Jacka,,CA,B,Multi-ply,Masters 47-53,M,125,,,245,,245,2
Jeff Fahrenbruch,,AZ,B,Multi-ply,Masters 47-53,M,125,,,232.5,,232.5,3
Ken Eyre,,UT,B,Multi-ply,Masters 47-53,M,125,,,200,,200,4
Allen Heta,New Zealand,,B,Multi-ply,Masters 47-53,M,125,,,170,,170,5
Bruce Sabin,,CA,B,Multi-ply,Masters 47-53,M,140,,,245,,245,1
Sam Pecktol,,OR,B,Multi-ply,Masters 47-53,M,140,,,237.5,,237.5,2
Joe Mickelson,,WA,B,Multi-ply,Masters 47-53,M,140,,,237.5,,237.5,3
Tom Manno,,AZ,B,Multi-ply,Masters 47-53,M,140+,,,295,,295,1
John Minahan,,CA,B,Multi-ply,Masters 47-53,M,140+,,,277.5,,277.5,2
Pete Lattanzi,,TX,B,Multi-ply,Masters 47-53,M,140+,,,260,,260,3
Leo Contreras,,CA,B,Multi-ply,Masters 47-53,M,140+,,,192.5,,192.5,4
Maarten Roelofs,,UT,B,Multi-ply,Masters 47-53,M,140+,,,192.5,,192.5,5
Robert Gill,,OH,B,Multi-ply,Masters 54-60,M,56,,,,,,DQ
Gary Bobrovitz,Canada,,B,Multi-ply,Masters 54-60,M,60,,,130,,130,1
David Higgins,,WA,B,Multi-ply,Masters 54-60,M,67.5,,,117.5,,117.5,1
Dennis Cain,,NV,B,Multi-ply,Masters 54-60,M,75,,,122.5,,122.5,1
Stefan Lemire,,UT,B,Multi-ply,Masters 54-60,M,75,,,122.5,,122.5,2
Alan Sheen,,LA,B,Multi-ply,Masters 54-60,M,75,,,100,,100,3
Tom Gonnering,,AL,B,Multi-ply,Masters 54-60,M,82.5,,,182.5,,182.5,1
Perry Plush,,WA,B,Multi-ply,Masters 54-60,M,82.5,,,165,,165,2
Bob Hill,,OR,B,Multi-ply,Masters 54-60,M,82.5,,,157.5,,157.5,3
Edgar Martinez #7,,CA,B,Single-ply,Masters 54-60,M,82.5,,,155,,155,1
Roberto Contreras #2,,TX,B,Multi-ply,Masters 54-60,M,82.5,,,152.5,,152.5,4
Eric Ansberry,,CA,B,Multi-ply,Masters 54-60,M,82.5,,,142.5,,142.5,5
Ron Jones,,AL,B,Multi-ply,Masters 54-60,M,82.5,,,137.5,,137.5,6
Kelly Cain,,NV,B,Multi-ply,Masters 54-60,M,82.5,,,107.5,,107.5,7
Bob Hochstein,,IL,B,Multi-ply,Masters 54-60,M,90,,,,,,DQ
Dan Swift,,IL,B,Multi-ply,Masters 54-60,M,90,,,205,210,205,1
Joe Parsons,,OK,B,Multi-ply,Masters 54-60,M,90,,,182.5,,182.5,2
Rich Tsutsui,,CA,B,Multi-ply,Masters 54-60,M,90,,,160,,160,3
Godfrey Holzinger,,WA,B,Multi-ply,Masters 54-60,M,90,,,152.5,,152.5,4
Rudy Kadlub,,OR,B,Multi-ply,Masters 54-60,M,90,,,137.5,,137.5,5
Robert Barna,,PA,B,Multi-ply,Masters 54-60,M,90,,,125,,125,6
Larry Anderson,,MN,B,Multi-ply,Masters 54-60,M,100,,,,,,DQ
Dave Marba,,CA,B,Multi-ply,Masters 54-60,M,100,,,205,,205,1
David Martinez #7,,CA,B,Multi-ply,Masters 54-60,M,100,,,192.5,,192.5,2
Larry Orlando,,CA,B,Multi-ply,Masters 54-60,M,100,,,187.5,,187.5,3
Jarnail Singh Birring,UK,,B,Multi-ply,Masters 54-60,M,100,,,177.5,,177.5,4
Dale West,,ID,B,Multi-ply,Masters 54-60,M,100,,,145,,145,5
Joe Pablo,,MT,B,Multi-ply,Masters 54-60,M,100,,,142.5,,142.5,6
Thomas Wright,,NV,B,Multi-ply,Masters 54-60,M,110,,,115,,115,1
Serafim Rocha,Brazil,,B,Multi-ply,Masters 54-60,M,117.5,,,180,,180,1
Dan Harkins,,WA,B,Multi-ply,Masters 54-60,M,117.5,,,112.5,,112.5,2
Colin Bonneau,Canada,,B,Multi-ply,Masters 54-60,M,125,,,227.5,,227.5,1
Doug Knapp,,CA,B,Multi-ply,Masters 54-60,M,125,,,175,,175,2
Austin Webb,,AR,B,Multi-ply,Masters 54-60,M,140,,,222.5,,222.5,1
Peter Herdt,,ID,B,Multi-ply,Masters 54-60,M,140+,,,192.5,,192.5,1
Moses Timbal,,HI,B,Multi-ply,Masters 61-67,M,75,,,127.5,,127.5,1
Thomas English,,NV,B,Multi-ply,Masters 61-67,M,75,,,112.5,,112.5,2
Arlindo da Silva,Brazil,,B,Multi-ply,Masters 61-67,M,75,,,110,,110,3
Rudy Lozano,,CA,B,Multi-ply,Masters 61-67,M,82.5,,,185,,185,1
Michael Minietta,,NV,B,Multi-ply,Masters 61-67,M,82.5,,,147.5,,147.5,2
Jerry McCamman,,CA,B,Multi-ply,Masters 61-67,M,82.5,,,140,,140,3
George Hawkins,,CA,B,Multi-ply,Masters 61-67,M,82.5,,,112.5,,112.5,4
Don Covello,,CA,B,Multi-ply,Masters 61-67,M,82.5,,,85,,85,5
Jim Day,,TN,B,Multi-ply,Masters 61-67,M,90,,,80,,80,1
Vincent Breaux,,LA,B,Multi-ply,Masters 61-67,M,100,,,205,207.5,205,1
Joe Beteta,,OR,B,Multi-ply,Masters 61-67,M,100,,,170,,170,2
Robert Urrea,,CA,B,Multi-ply,Masters 61-67,M,100,,,137.5,,137.5,3
Tom Haggenmiller,,MN,B,Multi-ply,Masters 61-67,M,100,,,135,,135,4
Terry Bunce,,OR,B,Multi-ply,Masters 61-67,M,100,,,135,,135,5
Richard Zareck,,FL,B,Multi-ply,Masters 61-67,M,110,,,190,,190,1
Daniel Smith III,,CA,B,Multi-ply,Masters 61-67,M,110,,,157.5,,157.5,2
Ed Acey,,UT,B,Multi-ply,Masters 61-67,M,117.5,,,200,,200,1
Bill Bidinotto,,OH,B,Multi-ply,Masters 61-67,M,117.5,,,185,,185,2
Eldon Olson,,MT,B,Multi-ply,Masters 61-67,M,117.5,,,167.5,,167.5,3
Mike Bonifield,,CA,B,Multi-ply,Masters 61-67,M,117.5,,,160,,160,4
Robert O. Smith,Canada,,B,Single-ply,Masters 61-67,M,140,,,232.5,,232.5,1
Jim Merlino,,CA,B,Multi-ply,Masters 68-74,M,75,,,115,,115,1
Bob Nussear,,FL,B,Multi-ply,Masters 68-74,M,75,,,110,,110,2
Bill Tinkler,,FL,B,Multi-ply,Masters 68-74,M,75,,,105,,105,3
Charles Vause,,HI,B,Multi-ply,Masters 68-74,M,75,,,102.5,,102.5,4
David Boyes,,LA,B,Multi-ply,Masters 68-74,M,82.5,,,67.5,,67.5,1
William Prince,,NV,B,Multi-ply,Masters 68-74,M,90,,,125,,125,1
Nick Di Liddo,,CA,B,Multi-ply,Masters 68-74,M,90,,,117.5,,117.5,2
Donald Judd,,AZ,B,Multi-ply,Masters 68-74,M,90,,,65,,65,3
Jim Bourisaw,,MO,B,Multi-ply,Masters 68-74,M,100,,,182.5,,182.5,1
John Herbein,,PA,B,Multi-ply,Masters 68-74,M,100,,,120,,120,2
Donald Lovas,,CA,B,Multi-ply,Masters 68-74,M,100,,,105,,105,3
Dan Herrera,,CA,B,Multi-ply,Masters 68-74,M,117.5,,,195,200,195,1
Robert Cortes,,CA,B,Single-ply,Masters 75-79,M,67.5,,,112.5,,112.5,1
Richard Simon,,CA,B,Multi-ply,Masters 75-79,M,82.5,,,115,,115,1
James Weiss,,CA,B,Multi-ply,Masters 75-79,M,90,,,90,,90,1
Russell Combest,,OH,B,Multi-ply,Masters 75-79,M,110,,,127.5,,127.5,1
Sheldon Levy,,NY,B,Multi-ply,Masters 75-79,M,110,,,92.5,,92.5,2
Arthur Whinston,,OR,B,Multi-ply,Masters 80-84,M,67.5,,,40,,40,1
Edwin Free Jr,,TN,B,Multi-ply,Masters 80-84,M,90,,,62.5,,62.5,1
Eugene L Miranda,,CA,B,Multi-ply,Masters 80-84,M,100,,,110,,110,1
Donald Dreyer,,LA,B,Multi-ply,Masters 85-89,M,82.5,,,70,,70,1
Alexandra Vallejo,,CA,B,Multi-ply,Masters 40-46,F,44,,,,,,DQ
Sandra Herring,,GA,B,Multi-ply,Masters 40-46,F,48,,,57.5,,57.5,1
Suzanne Hedman,,CA,B,Multi-ply,Masters 40-46,F,52,,,87.5,,87.5,1
Alison Barnhill,,CA,B,Multi-ply,Masters 40-46,F,56,,,,,,DQ
Lynda Christopher,,AZ,B,Multi-ply,Masters 40-46,F,56,,,55,,55,1
Laurie Lamp,,WA,B,Multi-ply,Masters 40-46,F,60,,,87.5,,87.5,1
Julane Jazzique,,CA,B,Multi-ply,Masters 40-46,F,60,,,67.5,,67.5,2
Daniele McCollum,,CA,B,Multi-ply,Masters 40-46,F,75,,,112.5,,112.5,1
Teresa Jacobs,,WA,B,Multi-ply,Masters 40-46,F,75,,,105,,105,2
Janet Hase,,CA,B,Multi-ply,Masters 40-46,F,82.5,,,,,,DQ
Eleanora Reeves,,TN,B,Multi-ply,Masters 40-46,F,82.5,,,102.5,,102.5,1
Cheryl Williams #3,,GA,B,Multi-ply,Masters 40-46,F,82.5,,,85,,85,2
Elizabeth Harwood,,WA,B,Multi-ply,Masters 40-46,F,82.5,,,77.5,,77.5,3
Dee Jaye Backiel,,WA,B,Multi-ply,Masters 40-46,F,82.5,,,77.5,,77.5,4
Karen Campbell,,ME,B,Multi-ply,Masters 40-46,F,90,,,15,,15,2
Susan Jackson,,WA,B,Multi-ply,Masters 40-46,F,90,,,125,,125,1
Kelly Franklin,,MN,B,Multi-ply,Masters 40-46,F,90+,,,155,,155,1
Jane Morales,Brazil,,B,Multi-ply,Masters 40-46,F,90+,,,120,,120,2
Rauaroha Joy Heta,New Zealand,,B,Multi-ply,Masters 40-46,F,90+,,,70,,70,3
Therese Gill,,OH,B,Multi-ply,Masters 47-53,F,48,,,62.5,,62.5,1
Denise Ruff,,OR,B,Multi-ply,Masters 47-53,F,56,,,80,,80,1
Kathy Waugh,,MI,B,Multi-ply,Masters 47-53,F,60,,,85,,85,1
Jill Struck,,UT,B,Multi-ply,Masters 47-53,F,75,,,67.5,,67.5,1
Jane Stabile,,MA,B,Multi-ply,Masters 47-53,F,75,,,62.5,,62.5,2
Cindy Weber,,TN,B,Multi-ply,Masters 47-53,F,82.5,,,115,120,115,1
Holly Oxford,,MT,B,Multi-ply,Masters 47-53,F,90,,,120,122.5,120,1
Pamela Michaels-Olson,,WA,B,Multi-ply,Masters 47-53,F,90,,,97.5,,97.5,2
Cheryl Erickson,,WA,B,Multi-ply,Masters 47-53,F,90,,,72.5,,72.5,3
Sue Vaterlaus,,CA,B,Multi-ply,Masters 47-53,F,90+,,,,,,DQ
Margie Huston,,WA,B,Multi-ply,Masters 47-53,F,90+,,,90,,90,1
Sherry Abblett,,CA,B,Multi-ply,Masters 54-60,F,44,,,37.5,,37.5,1
Ita Pantilat,,WA,B,Multi-ply,Masters 54-60,F,52,,,87.5,,87.5,1
Hedy Miller,,UT,B,Multi-ply,Masters 54-60,F,52,,,87.5,,87.5,2
Karen Polansky,,CA,B,Multi-ply,Masters 54-60,F,90,,,87.5,,87.5,1
Wilma Lee Cadavona,,ID,B,Multi-ply,Masters 54-60,F,90,,,75,,75,2
Delia Chilgren,,CA,B,Multi-ply,Masters 54-60,F,90,,,45,,45,3
Cynthia Regan,,NY,B,Multi-ply,Masters 54-60,F,90+,,,107.5,,107.5,1
Betty Lafferty,,AL,B,Multi-ply,Masters 61-67,F,52,,,70,73.5,70,1
Mary-Ellen Buchanan,,WA,B,Multi-ply,Masters 61-67,F,52,,,42.5,,42.5,2
Barbara Anderson,,WA,B,Multi-ply,Masters 61-67,F,67.5,,,80,,80,1
Mary Yale,,GA,B,Multi-ply,Masters 61-67,F,67.5,,,52.5,,52.5,2
Pat Robey,,WA,B,Multi-ply,Masters 61-67,F,82.5,,,102.5,107.5,102.5,1
Winifred Pristell,,WA,B,Multi-ply,Masters 61-67,F,90,,,75,,75,1
Florence Combest,,OH,B,Multi-ply,Masters 68-74,F,67.5,,,30,,30,1
Malvina Basso,Brazil,,B,Multi-ply,Masters 75-79,F,60,,,30,,30,1
Melicent Whinston,,OR,B,Multi-ply,Masters 75-79,F,60,,,30,,30,2
Gary Bobrovitz,Canada,,B,Multi-ply,Open,M,60,,,130,,130,1
Alfredo Evangelista,,OR,B,Multi-ply,Open,M,67.5,,,182.5,,182.5,1
Charles Venturella,,PA,B,Multi-ply,Open,M,67.5,,,177.5,,177.5,2
David R Smith,,TX,B,Multi-ply,Open,M,67.5,,,167.5,,167.5,3
Jason Arnold,,CA,B,Multi-ply,Open,M,67.5,,,147.5,,147.5,4
Michael Salemi,,CA,B,Multi-ply,Open,M,67.5,,,147.5,,147.5,5
Andrew Kim #4,,IL,B,Multi-ply,Open,M,75,,,227.5,235,227.5,1
John Alves,,CA,B,Multi-ply,Open,M,75,,,200,,200,2
Monte Hokoana,,HI,B,Multi-ply,Open,M,75,,,182.5,,182.5,3
Sean Kearney,,FL,B,Multi-ply,Open,M,75,,,147.5,,147.5,4
Chris Rayner,,OK,B,Multi-ply,Open,M,82.5,,,,,,DQ
Keith Daniels,,HI,B,Multi-ply,Open,M,82.5,,,212.5,,212.5,1
Kim Päivöke,Finland,,B,Multi-ply,Open,M,82.5,,,210,,210,2
Phil Cannizzaro,,CA,B,Multi-ply,Open,M,82.5,,,210,,210,3
Don Linerud,,ID,B,Multi-ply,Open,M,82.5,,,197.5,,197.5,4
Anton White,,IL,B,Multi-ply,Open,M,82.5,,,190,,190,5
Bob Hill,,OR,B,Multi-ply,Open,M,82.5,,,157.5,,157.5,6
Sean Carr,,IL,B,Multi-ply,Open,M,82.5,,,150,,150,7
Vic Karpenko,,CA,B,Multi-ply,Open,M,90,,,,,,DQ
James Burdette,,CA,B,Multi-ply,Open,M,90,,,290,,290,1
Frank Caminita III,,LA,B,Multi-ply,Open,M,90,,,277.5,,277.5,2
Wayne Prose,,IL,B,Multi-ply,Open,M,90,,,227.5,,227.5,3
Jeff Sussman #1,,WA,B,Multi-ply,Open,M,90,,,215,,215,4
Jody Woods,,CA,B,Multi-ply,Open,M,90,,,215,,215,5
Charles Phillips,,AL,B,Multi-ply,Open,M,90,,,207.5,,207.5,6
David Militana,,TN,B,Multi-ply,Open,M,90,,,207.5,,207.5,7
Nelson Callahan,,HI,B,Multi-ply,Open,M,90,,,197.5,,197.5,8
Ahmed Abukhater,Palestine,,B,Single-ply,Open,M,90,,,175,182.5,175,1
Steve Peña #1,,CA,B,Multi-ply,Open,M,100,,,,,,DQ
Joe Guerra,,TX,B,Multi-ply,Open,M,100,,,257.5,,257.5,1
Tatu Avola,Finland,,B,Multi-ply,Open,M,100,,,255,,255,2
Doug Haycraft,,IL,B,Multi-ply,Open,M,100,,,255,,255,3
John Mendoza #6,,AZ,B,Multi-ply,Open,M,100,,,245,,245,4
Juha Pukkila,Finland,,B,Multi-ply,Open,M,100,,,217.5,,217.5,5
James Hunter,,CA,B,Multi-ply,Open,M,110,,,317.5,,317.5,1
Kegan Engelke,,WA,B,Multi-ply,Open,M,110,,,247.5,,247.5,2
Josh Lerch,,IL,B,Multi-ply,Open,M,110,,,230,,230,3
John Anthony,,OR,B,Multi-ply,Open,M,110,,,220,,220,4
Phillip Arroyo,,WA,B,Multi-ply,Open,M,110,,,200,,200,5
Mike Cordova,,UT,B,Multi-ply,Open,M,110,,,,,,DQ
Jason Laskowski,,TX,B,Multi-ply,Open,M,117.5,,,340,,340,1
Scott Hoekstra,,CA,B,Multi-ply,Open,M,117.5,,,285,,285,2
Jani Toivo Kristian Ihalainen,Finland,,B,Multi-ply,Open,M,117.5,,,275,,275,3
Mike Desrosiers,,AZ,B,Multi-ply,Open,M,117.5,,,265,,265,4
David Groves,,WA,B,Multi-ply,Open,M,117.5,,,255,,255,5
Forest Hofer,,WA,B,Multi-ply,Open,M,125,,,,,,DQ
Dustin Newsom,,NV,B,Multi-ply,Open,M,125,,,,,,DQ
Terry Gibson,,PA,B,Multi-ply,Open,M,125,,,300,,300,1
Nils Sjödin,Sweden,,B,Multi-ply,Open,M,125,,,300,,300,2
Patrick Holloway,,AZ,B,Multi-ply,Open,M,125,,,295,,295,3
Justin Ross,,AL,B,Multi-ply,Open,M,125,,,290,,290,4
Thomas Kesling,,TN,B,Multi-ply,Open,M,125,,,257.5,,257.5,5
Jerry Pritchett,,AZ,B,Multi-ply,Open,M,125,,,242.5,,242.5,6
Brandon Bankston,,LA,B,Multi-ply,Open,M,125,,,227.5,,227.5,7
Sandeep Sharma,India,,B,Multi-ply,Open,M,125,,,115,,115,8
Vic Aleaga,,WA,B,Multi-ply,Open,M,140,,,,,,DQ
Jeff Peshek,,OH,B,Multi-ply,Open,M,140,,,352.5,,352.5,1
Ken Overbey,,AL,B,Multi-ply,Open,M,140,,,290,,290,2
Jari Rosendahl,Finland,,B,Multi-ply,Open,M,140,,,280,290,280,3
Joe Mickelson,,WA,B,Multi-ply,Open,M,140,,,237.5,,237.5,4
Frederick Alexander,,TX,B,Multi-ply,Open,M,140,,,235,,235,5
Eddie Aleaga,,WA,B,Multi-ply,Open,M,140+,,,,,,DQ
Tom Manno,,AZ,B,Multi-ply,Open,M,140+,,,,,,DQ
Robert Vick,,IL,B,Multi-ply,Open,M,140+,,,365,,365,1
James Crawford III,,WA,B,Multi-ply,Open,M,140+,,,320,,320,2
Scott Wesley Jordan,,AZ,B,Multi-ply,Open,M,140+,,,320,,320,3
Roy Bradshaw,,CA,B,Multi-ply,Open,M,140+,,,320,,320,4
Chane Cline,,OH,B,Multi-ply,Open,M,140+,,,265,,265,5
Roy Lamont,,CA,B,Multi-ply,Open,M,140+,,,250,,250,6
Ita Pantilat,,WA,B,Multi-ply,Open,F,52,,,87.5,,87.5,1
Nikki Williams,,GA,B,Multi-ply,Open,F,56,,,87.5,,87.5,1
Erica Haislar,,IL,B,Multi-ply,Open,F,60,,,100,,100,1
Mary Ann Hobbs,,WA,B,Multi-ply,Open,F,60,,,87.5,,87.5,2
Patricia Cordova,,CA,B,Multi-ply,Open,F,60,,,65,,65,3
Virpi Pukkila,Finland,,B,Multi-ply,Open,F,67.5,,,120,,120,1
Marie Rochat,,OR,B,Multi-ply,Open,F,67.5,,,112.5,,112.5,2
Liisa Penttinen,Finland,,B,Multi-ply,Open,F,67.5,,,87.5,,87.5,3
Elizabeth Stephens,,CA,B,Multi-ply,Open,F,67.5,,,80,,80,4
Elise Brachtl,,NV,B,Multi-ply,Open,F,67.5,,,65,,65,5
Teri Campbell,,NV,B,Multi-ply,Open,F,67.5,,,57.5,,57.5,6
Karen Siemssen,,TX,B,Multi-ply,Open,F,75,,,107.5,,107.5,1
Cindy Weber,,TN,B,Multi-ply,Open,F,82.5,,,115,,115,1
Pat Robey,,WA,B,Multi-ply,Open,F,82.5,,,102.5,,102.5,2
Karen Campbell,,ME,B,Multi-ply,Open,F,90,,,157.5,,157.5,1
Michelle Ichiyama,,WA,B,Multi-ply,Open,F,90,,,127.5,,127.5,2
Brooke Bourg,,LA,B,Multi-ply,Open,F,90,,,125,,125,3
Susan Jackson,,WA,B,Multi-ply,Open,F,90,,,125,,125,4
Heather Gibson,,UT,B,Multi-ply,Open,F,90,,,92.5,,92.5,5
Lisa Miller #3,,IL,B,Multi-ply,Open,F,90+,,,187.5,,187.5,1
Kelly Franklin,,MN,B,Multi-ply,Open,F,90+,,,155,,155,2
Nicole Marie Jones,,TX,B,Multi-ply,Open,F,90+,,,150,,150,3
Tina Riley,,CA,B,Multi-ply,Open,F,90+,,,112.5,,112.5,4
Jon Shapiro,,CA,B,Multi-ply,Special Olympian,M,67.5,,,115,,115,1
Ismael Diaz,,TX,B,Multi-ply,Special Olympian,M,75,,,57.5,,57.5,1
Matt Hasner,,SD,B,Multi-ply,Special Olympian,M,90,,,92.5,,92.5,1
Roberto Ramirez Jr,,TX,B,Multi-ply,Special Olympian,M,100,,,55,,55,1
Bobby Lord,,TX,B,Multi-ply,Special Olympian,M,117.5,,,132.5,137.5,132.5,1
Jock Mayes,,CA,B,Multi-ply,Special Olympian,M,140+,,,112.5,,112.5,1
Elizandro Vela,,TX,B,Multi-ply,Special Olympian,M,140+,,,75,,75,2
Manuel Vera Jr,,TX,B,Multi-ply,Special Olympian,M,140+,,,62.5,,62.5,3
Holly James,,CA,B,Multi-ply,Special Olympian,F,75,,,45,,45,1
David R Smith,,TX,B,Multi-ply,Submasters 33-39,M,67.5,,,165,,165,1
Richard Anderson,,AL,B,Multi-ply,Submasters 33-39,M,75,,,130,,130,1
Keith Daniels,,HI,B,Multi-ply,Submasters 33-39,M,82.5,,,212.5,,212.5,1
Kim Päivöke,Finland,,B,Multi-ply,Submasters 33-39,M,82.5,,,210,,210,2
Phil Cannizzaro,,CA,B,Multi-ply,Submasters 33-39,M,82.5,,,210,,210,3
Jerry Huddleston,,AL,B,Multi-ply,Submasters 33-39,M,82.5,,,170,,170,4
Danny Soto,,WA,B,Multi-ply,Submasters 33-39,M,90,,,245,,245,1
Jason Carson,,IL,B,Multi-ply,Submasters 33-39,M,90,,,205,,205,2
Nelson Callahan,,HI,B,Multi-ply,Submasters 33-39,M,90,,,197.5,,197.5,3
Charles Wu,,WA,B,Multi-ply,Submasters 33-39,M,90,,,162.5,,162.5,4
Michael Green,,FL,B,Multi-ply,Submasters 33-39,M,100,,,290,,290,1
Joe Guerra,,TX,B,Multi-ply,Submasters 33-39,M,100,,,257.5,,257.5,2
Ed Barnes,,CA,B,Multi-ply,Submasters 33-39,M,100,,,252.5,,252.5,3
Jon Kobayashi,,HI,B,Multi-ply,Submasters 33-39,M,100,,,247.5,,247.5,4
John Mendoza #6,,AZ,B,Multi-ply,Submasters 33-39,M,100,,,245,,245,5
Juan Laija #1,,CA,B,Multi-ply,Submasters 33-39,M,100,,,237.5,,237.5,6
Delwin Chinn,,WA,B,Multi-ply,Submasters 33-39,M,100,,,205,,205,7
Bruce Nichols,,NV,B,Multi-ply,Submasters 33-39,M,100,,,197.5,,197.5,8
Sean McGrath,,NY,B,Multi-ply,Submasters 33-39,M,100,,,147.5,,147.5,9
Dan Tubridy,,CA,B,Multi-ply,Submasters 33-39,M,110,,,,,,DQ
Frank Wakakuwa,,HI,B,Multi-ply,Submasters 33-39,M,110,,,,,,DQ
James Hunter,,CA,B,Multi-ply,Submasters 33-39,M,110,,,317.5,,317.5,1
Paul Mercado,,IL,B,Multi-ply,Submasters 33-39,M,110,,,187.5,,187.5,2
Jim Casemier,,MI,B,Multi-ply,Submasters 33-39,M,110,,,185,,185,3
Brian Gilman,,WA,B,Multi-ply,Submasters 33-39,M,110,,,140,,140,4
Brandon Goda,,HI,B,Multi-ply,Submasters 33-39,M,117.5,,,,,,DQ
Paul Fitschen,,WA,B,Multi-ply,Submasters 33-39,M,117.5,,,217.5,,217.5,1
Robert Lincoln,,CA,B,Multi-ply,Submasters 33-39,M,125,,,302.5,305.5,302.5,1
Terry Gibson,,PA,B,Multi-ply,Submasters 33-39,M,125,,,300,,300,2
Patrick Holloway,,AZ,B,Multi-ply,Submasters 33-39,M,125,,,295,,295,3
Jeffrey Snyder,,TX,B,Multi-ply,Submasters 33-39,M,125,,,260,,260,4
Jason Gibson,,UT,B,Multi-ply,Submasters 33-39,M,125,,,255,,255,5
Clint Berey,,GA,B,Multi-ply,Submasters 33-39,M,125,,,235,,235,6
Brandon Bankston,,LA,B,Multi-ply,Submasters 33-39,M,125,,,227.5,,227.5,7
Tiny Meeker,,TX,B,Single-ply,Submasters 33-39,M,140,,,,,,DQ
Steve Wong,,CA,B,Single-ply,Submasters 33-39,M,140,,,400,,400,1
Robert Vick,,IL,B,Multi-ply,Submasters 33-39,M,140+,,,365,,365,1
Scott Wesley Jordan,,AZ,B,Multi-ply,Submasters 33-39,M,140+,,,320,,320,2
Roy Bradshaw,,CA,B,Multi-ply,Submasters 33-39,M,140+,,,320,,320,3
James Carter,,AL,B,Multi-ply,Submasters 33-39,M,140+,,,305,,305,4
Roy Lamont,,CA,B,Multi-ply,Submasters 33-39,M,140+,,,250,,250,5
Christine Kim,Canada,,B,Multi-ply,Submasters 33-39,F,52,,,30,,30,1
Virpi Pukkila,Finland,,B,Multi-ply,Submasters 33-39,F,67.5,,,120,,120,1
Rachele Unson,,WA,B,Multi-ply,Submasters 33-39,F,67.5,,,77.5,,77.5,2
Elise Brachtl,,NV,B,Multi-ply,Submasters 33-39,F,67.5,,,65,,65,3
Teri Campbell,,NV,B,Multi-ply,Submasters 33-39,F,67.5,,,57.5,,57.5,4
Disarie Spencer,,CA,B,Multi-ply,Submasters 33-39,F,75,,,62.5,,62.5,1
Gwen Cables,,GA,B,Multi-ply,Submasters 33-39,F,82.5,,,92.5,,92.5,1
Michelle Ichiyama,,WA,B,Multi-ply,Submasters 33-39,F,90,,,127.5,,127.5,1
Brooke Bourg,,LA,B,Multi-ply,Submasters 33-39,F,90,,,125,,125,2
Tina Riley,,CA,B,Multi-ply,Submasters 33-39,F,90+,,,112.5,,112.5,1
Chace Akina,,HI,B,Multi-ply,Teen 12-13,M,44,,,52.5,55.5,52.5,1
Cory Grizzle,,OR,B,Multi-ply,Teen 12-13,M,44,,,25,,25,2
Amos Grizzle,,OR,B,Multi-ply,Teen 12-13,M,56,,,42.5,,42.5,1
Christian Bird,,WA,B,Multi-ply,Teen 12-13,M,60,,,32.5,,32.5,1
John Meinersmann,,GA,B,Multi-ply,Teen 12-13,M,67.5,,,55,,55,1
Jordan Gibson #1,,UT,B,Multi-ply,Teen 12-13,M,90,,,92.5,,92.5,1
Ryan Mahoney,,OR,B,Multi-ply,Teen 14-15,M,67.5,,,110,,110,1
Juan Laija #3,,CA,B,Multi-ply,Teen 14-15,M,75,,,137.5,,137.5,1
Cody Anderson,,MN,B,Multi-ply,Teen 14-15,M,75,,,100,,100,2
Trevor English,,NV,B,Multi-ply,Teen 14-15,M,75,,,75,,75,3
Matt Phipps,,NV,B,Multi-ply,Teen 14-15,M,82.5,,,92.5,,92.5,1
Jake Garbush,,WA,B,Multi-ply,Teen 14-15,M,90,,,125,,125,1
Christopher Van Gundy,,IL,B,Multi-ply,Teen 14-15,M,100,,,175,,175,1
Jesse Triplett,,OK,B,Multi-ply,Teen 14-15,M,100,,,152.5,,152.5,2
Henry Yee Hoy,,HI,B,Multi-ply,Teen 14-15,M,100,,,117.5,,117.5,3
Mike Walsh #2,,MN,B,Multi-ply,Teen 14-15,M,110,,,92.5,,92.5,1
Levi Wright,,GA,B,Multi-ply,Teen 14-15,M,125,,,150,,150,1
Chris Arnold #6,,GA,B,Multi-ply,Teen 14-15,M,140,,,102.5,,102.5,1
Richard Baxter Hunt,,GA,B,Multi-ply,Teen 16-19,M,52,,,85,,85,1
Emmanuel Tsimouris,,WA,B,Multi-ply,Teen 16-19,M,56,,,107.5,,107.5,1
Travis Belen,,WA,B,Multi-ply,Teen 16-19,M,60,,,132.5,,132.5,1
Nick Lenhart,,UT,B,Multi-ply,Teen 16-19,M,60,,,130,,130,2
Matt de la Cruz,,TX,B,Multi-ply,Teen 16-19,M,60,,,127.5,,127.5,3
Michael Salemi,,CA,B,Multi-ply,Teen 16-19,M,67.5,,,147.5,,147.5,1
Spencer Cole,,WA,B,Multi-ply,Teen 16-19,M,67.5,,,137.5,,137.5,2
Anthony Ramos,,GA,B,Multi-ply,Teen 16-19,M,67.5,,,132.5,,132.5,3
Raul Bazan,,TX,B,Multi-ply,Teen 16-19,M,67.5,,,130,,130,4
Chad Cooper,,MI,B,Multi-ply,Teen 16-19,M,67.5,,,102.5,,102.5,5
Donnie Miskinis,,OH,B,Multi-ply,Teen 16-19,M,67.5,,,102.5,,102.5,6
Tyler English,,NV,B,Multi-ply,Teen 16-19,M,67.5,,,92.5,,92.5,7
Simon McKee,,CA,B,Multi-ply,Teen 16-19,M,67.5,,,92.5,,92.5,8
Brandon Leming,,TN,B,Multi-ply,Teen 16-19,M,75,,,200,,200,1
Hervey Torres,,TX,B,Multi-ply,Teen 16-19,M,75,,,142.5,,142.5,2
Paul Mitchell #2,,GA,B,Multi-ply,Teen 16-19,M,75,,,107.5,,107.5,3
Chris Rayner,,OK,B,Multi-ply,Teen 16-19,M,82.5,,,,,,DQ
Jose Perez #3,,TX,B,Multi-ply,Teen 16-19,M,82.5,,,150,,150,1
Matthew Barras,,TX,B,Multi-ply,Teen 16-19,M,82.5,,,62.5,,62.5,2
Michael Barthen,,GA,B,Multi-ply,Teen 16-19,M,90,,,175,,175,1
Hugo Sanchez,,TX,B,Multi-ply,Teen 16-19,M,90,,,162.5,,162.5,2
Hunter Beall,,LA,B,Multi-ply,Teen 16-19,M,90,,,147.5,,147.5,3
Du Juan Calvo,,TX,B,Multi-ply,Teen 16-19,M,100,,,,,,DQ
Andrew Garcia,,TX,B,Multi-ply,Teen 16-19,M,100,,,160,,160,1
Joshua Gonnering,,AL,B,Multi-ply,Teen 16-19,M,100,,,145,,145,2
Adam Contreras #1,,CA,B,Multi-ply,Teen 16-19,M,100,,,140,,140,3
Andrew Kimmel,,NV,B,Multi-ply,Teen 16-19,M,100,,,137.5,,137.5,4
Jesse Fain,,GA,B,Multi-ply,Teen 16-19,M,110,,,207.5,,207.5,1
Tim Peterson,,CA,B,Multi-ply,Teen 16-19,M,110,,,165,,165,2
David Baty,,MI,B,Multi-ply,Teen 16-19,M,110,,,112.5,,112.5,3
Max McKee,,CA,B,Multi-ply,Teen 16-19,M,117.5,,,,,,DQ
Seth Carter,,TN,B,Multi-ply,Teen 16-19,M,117.5,,,222.5,,222.5,1
David Willaman,,OH,B,Multi-ply,Teen 16-19,M,125,,,220,,220,1
Dalfred Kalani Kaipo,,HI,B,Multi-ply,Teen 16-19,M,125,,,107.5,,107.5,2
Kevin Romano,,GA,B,Multi-ply,Teen 16-19,M,140,,,227.5,,227.5,1
Cheyenne Tavares,,HI,B,Multi-ply,Teen 12-13,F,44,,,35,,35,1
Ali Miskinis,,OH,B,Multi-ply,Teen 12-13,F,48,,,27.5,,27.5,1
Geri Cunningham,,UT,B,Multi-ply,Teen 14-15,F,44,,,47.5,50,47.5,1
Amanda Harris,,TX,B,Multi-ply,Teen 14-15,F,52,,,67.5,,67.5,1
Elizabeth Burroughs,,GA,B,Multi-ply,Teen 14-15,F,56,,,,,,DQ
Shelby O'Brien,,IL,B,Multi-ply,Teen 14-15,F,56,,,52.5,,52.5,1
Sarah Biddle,,IN,B,Multi-ply,Teen 14-15,F,60,,,57.5,,57.5,1
Brooke Dombos,,OH,B,Multi-ply,Teen 14-15,F,60,,,40,,40,2
Brittany Braguine,,CA,B,Multi-ply,Teen 14-15,F,82.5,,,115,122.5,115,1
Kayla Sua,,WA,B,Multi-ply,Teen 14-15,F,90,,,92.5,,92.5,1
Samantha Baty,,MI,B,Multi-ply,Teen 14-15,F,90+,,,75,,75,1
Brittany Burroughs,,GA,B,Multi-ply,Teen 16-19,F,52,,,62.5,64,62.5,1
Nikki Williams,,GA,B,Multi-ply,Teen 16-19,F,56,,,85,,85,1
Karina Phipps,,NV,B,Multi-ply,Teen 16-19,F,56,,,75,,75,2
Courtney Gathright,,TX,B,Multi-ply,Teen 16-19,F,82.5,,,137.5,,137.5,1
Jennifer Otto,,WA,B,Multi-ply,Teen 16-19,F,82.5,,,80,,80,2
Abigail Biddle,,IN,B,Multi-ply,Teen 16-19,F,82.5,,,65,,65,3
Hannah Biddle,,IN,B,Multi-ply,Teen 16-19,F,90,,,55,,55,1
Rebecca Jordan,,AL,B,Multi-ply,Teen 16-19,F,90+,,,125,,125,1
Katie Sons,,TX,B,Multi-ply,Teen 16-19,F,90+,,,107.5,,107.5,2
