Division,WeightClassKg,Place,Name,Team,BodyweightKg,Best3SquatKg,Best3BenchKg,Best3DeadliftKg,TotalKg,Equipment,Event,Sex,BirthDate
Boys,51.71,1,Fabian Solis,Edinburg Idea College Prep,50.89,231.33,158.76,204.12,594.21,Unlimited,SBD,M,
Boys,51.71,2,Kevin Ibanez,Troy,51.53,174.63,111.13,172.37,458.13,Unlimited,SBD,M,
Boys,51.71,3,Siah Moss,Hebbronville,51.71,174.63,97.52,176.9,449.06,Unlimited,SBD,M,
Boys,51.71,4,Giovanny Sanchez,Whitney,51.26,165.56,92.99,179.17,437.72,Unlimited,SBD,M,
Boys,51.71,5,Cesar Vazquez,Nixon Smiley,51.44,170.1,106.59,158.76,435.45,Unlimited,SBD,M,
Boys,51.71,6,Victor Madrigal,San Diego,49.9,170.1,95.25,165.56,430.91,Unlimited,SBD,M,
Boys,51.71,7,Jose Gutierrez,Fairfield,51.53,181.44,86.18,163.29,430.91,Unlimited,SBD,M,
Boys,51.71,8,Ollie Cortez,Van Vleck,51.26,167.83,90.72,165.56,424.11,Unlimited,SBD,M,
Boys,51.71,9,Jovanni Smith,Ballinger,51.44,133.81,122.47,165.56,421.84,Unlimited,SBD,M,
Boys,51.71,10,James Martinez,Corpus Christi London,50.26,151.95,102.06,163.29,417.3,Unlimited,SBD,M,
Boys,51.71,11,Juan Rodriguez,Santa Rosa,51.71,156.49,97.52,154.22,408.23,Unlimited,SBD,M,
Boys,51.71,12,Robert Garcia,Crystal City,50.8,142.88,97.52,158.76,399.16,Unlimited,SBD,M,
Boys,51.71,13,Caleb Norton,Pollok Central,51.39,142.88,95.25,142.88,381.02,Unlimited,SBD,M,
Boys,51.71,14,Colby Murphey,Ponder,50.53,136.08,97.52,142.88,376.48,Unlimited,SBD,M,
Boys,51.71,15,Collin Majalca,San Angelo TLC Academy,50.89,129.27,79.38,149.69,358.34,Unlimited,SBD,M,
Boys,51.71,DQ,Jaxon Black,Pollok Central,50.26,,,,,Unlimited,SBD,M,
Boys,51.71,DQ,Alex Martinez,Taft,50.89,183.7,86.18,,,Unlimited,SBD,M,
Boys,51.71,DQ,Monte Kerr,Iowa Park,51.17,,,,,Unlimited,SBD,M,
Boys,55.79,1,Adrian Lopez,Natalia,54.79,192.78,115.67,222.26,530.7,Unlimited,SBD,M,
Boys,55.79,2,Carlos Flores,Quitman,53.25,197.31,142.88,188.24,528.44,Unlimited,SBD,M,
Boys,55.79,3,Joey Rincones,Edinburg Idea College Prep,55.52,199.58,113.4,201.85,514.83,Unlimited,SBD,M,
Boys,55.79,4,Michael Bautista,Friona,55.07,181.44,129.27,192.78,503.49,Unlimited,SBD,M,
Boys,55.79,5,Thomas Herrera,West,55.07,183.7,115.67,192.78,492.15,Unlimited,SBD,M,
Boys,55.79,6,Julian Betancourt,Lyford,54.79,181.44,115.67,190.51,487.61,Unlimited,SBD,M,
Boys,55.79,7,Darson Daniel,Rogers,54.98,181.44,136.08,163.29,480.81,Unlimited,SBD,M,
Boys,55.79,8,Daniel Trevino,San Diego,55.52,183.7,129.27,165.56,478.54,Unlimited,SBD,M,
Boys,55.79,9,Jack Eubank,Maypearl,55.16,176.9,111.13,183.7,471.74,Unlimited,SBD,M,
Boys,55.79,10,Hudson Hunter,Corpus Christi London,55.34,167.83,115.67,183.7,467.2,Unlimited,SBD,M,
Boys,55.79,11,Landon Hutton,Peaster,55.25,174.63,120.2,170.1,464.93,Unlimited,SBD,M,
Boys,55.79,12,Jeriah Cisneros,Odem,55.25,192.78,97.52,174.63,464.93,Unlimited,SBD,M,
Boys,55.79,13,Landon Powers,Troy,55.61,170.1,131.54,158.76,460.4,Unlimited,SBD,M,
Boys,55.79,14,Jason Vasquez,Corpus Christi London,54.34,167.83,124.74,161.03,453.59,Unlimited,SBD,M,
Boys,55.79,15,Ayden Benavidez,Corpus Christi London,54.88,179.17,115.67,158.76,453.59,Unlimited,SBD,M,
Boys,55.79,16,Jacob Havelka,McGregor,55.52,172.37,108.86,172.37,453.59,Unlimited,SBD,M,
Boys,55.79,17,Axel Rangel,Comanche,55.16,190.51,99.79,161.03,451.32,Unlimited,SBD,M,
Boys,55.79,18,Michael Muniz,Goliad,54.98,170.1,95.25,176.9,442.25,Unlimited,SBD,M,
Boys,55.79,19,Carlos Gamez,Hitchcock,54.34,167.83,102.06,170.1,439.98,Unlimited,SBD,M,
Boys,55.79,20,Brandyn Bishop,Coahoma,55.25,154.22,104.33,167.83,426.38,Unlimited,SBD,M,
Boys,55.79,DQ,Sergio Martinez,Wallis Brazos,55.07,170.1,95.25,,,Unlimited,SBD,M,
Boys,55.79,DQ,Erik Mendoza,San Antonio Cole,55.43,185.97,111.13,,,Unlimited,SBD,M,
Boys,55.79,DQ,Jose Cruz,San Diego,54.34,183.7,,,,Unlimited,SBD,M,
Boys,55.79,DQ,Colin Davis,Kermit,55.34,,,,,Unlimited,SBD,M,
Boys,55.79,DQ,Jace Fountain,Mount Vernon,55.79,183.7,,,,Unlimited,SBD,M,
Boys,55.79,DQ,Robert Zambrano,Bowie,54.61,,,,,Unlimited,SBD,M,
Boys,59.87,1,Sergio Leal,Taft,58.33,235.87,170.1,197.31,603.28,Unlimited,SBD,M,
Boys,59.87,2,Chris Medrano,Dilley,58.42,226.8,149.69,204.12,580.6,Unlimited,SBD,M,
Boys,59.87,3,Diego Cruz,Santa Rosa,59.24,219.99,142.88,195.04,557.92,Unlimited,SBD,M,
Boys,59.87,4,Jaden Thibodeaux,Winnie East Chambers,58.6,210.92,142.88,197.31,551.11,Unlimited,SBD,M,
Boys,59.87,5,John Mendoza,Altair Rice,59.51,233.6,136.08,179.17,548.85,Unlimited,SBD,M,
Boys,59.87,6,Peyton Valdez,Troy,59.33,210.92,131.54,204.12,546.58,Unlimited,SBD,M,
Boys,59.87,7,Nicholas Thompson,West,57.7,185.97,136.08,213.19,535.24,Unlimited,SBD,M,
Boys,59.87,8,Danny Pena,San Angelo TLC Academy,59.33,197.31,131.54,204.12,532.97,Unlimited,SBD,M,
Boys,59.87,9,Austin Molina,Odem,58.79,206.38,106.59,215.46,528.44,Unlimited,SBD,M,
Boys,59.87,10,Tres Vasquez,Coahoma,58.79,201.85,124.74,199.58,526.17,Unlimited,SBD,M,
Boys,59.87,11,Cameron Patton,Dublin,59.24,199.58,136.08,190.51,526.17,Unlimited,SBD,M,
Boys,59.87,12,Jorge Garcia,Friona,59.24,192.78,136.08,195.04,523.9,Unlimited,SBD,M,
Boys,59.87,13,Tyler Barrientez,Nixon Smiley,59.24,208.65,127.01,185.97,521.63,Unlimited,SBD,M,
Boys,59.87,14,Eli Castillo,Fairfield,59.69,183.7,129.27,199.58,512.56,Unlimited,SBD,M,
Boys,59.87,15,Adrian Zavala,Crystal City,59.51,199.58,113.4,188.24,501.22,Unlimited,SBD,M,
Boys,59.87,16,Juan Ordorica,Winona,59.87,183.7,120.2,183.7,487.61,Unlimited,SBD,M,
Boys,59.87,17,Martin Pereyda,Anahuac,59.87,185.97,124.74,176.9,487.61,Unlimited,SBD,M,
Boys,59.87,18,Zach Garrett,Arp,59.28,167.83,108.86,183.7,460.4,Unlimited,SBD,M,
Boys,59.87,19,Erik Saucedo,Breckenridge,59.42,158.76,102.06,183.7,444.52,Unlimited,SBD,M,
Boys,67.13,1,Ethan Moreno,Lyford,67.13,254.01,183.7,238.14,675.85,Unlimited,SBD,M,
Boys,67.13,2,Oscar Acosta,Nixon Smiley,66.5,244.94,167.83,231.33,644.1,Unlimited,SBD,M,
Boys,67.13,3,Luke Estrada,Lytle,66.41,238.14,138.35,242.67,619.15,Unlimited,SBD,M,
Boys,67.13,4,Zak Chapa,Corpus Christi London,65.59,233.6,154.22,222.26,610.08,Unlimited,SBD,M,
Boys,67.13,5,Moises Cardenas,Cleveland Tarkington,65.68,226.8,140.61,235.87,603.28,Unlimited,SBD,M,
Boys,67.13,6,Cosme Gonzalez,Comanche,66.5,219.99,149.69,231.33,601.01,Unlimited,SBD,M,
Boys,67.13,7,Budah Schkade,San Angelo Grape Creek,66.32,226.8,145.15,226.8,598.74,Unlimited,SBD,M,
Boys,67.13,8,Marco Benavidez,Cotulla,66.41,219.99,158.76,219.99,598.74,Unlimited,SBD,M,
Boys,67.13,9,Easton Nguyen,Corpus Christi London,67.13,233.6,136.08,222.26,591.94,Unlimited,SBD,M,
Boys,67.13,10,Henry Anderson,Lyford,66.5,235.87,142.88,206.38,585.13,Unlimited,SBD,M,
Boys,67.13,11,Cyrus Martinez,Shepherd,66.77,224.53,124.74,231.33,580.6,Unlimited,SBD,M,
Boys,67.13,12,Jose Olvera,Nixon Smiley,67.13,226.8,129.27,215.46,571.53,Unlimited,SBD,M,
Boys,67.13,13,Joseph Benavides,Corpus Christi London,65.77,208.65,142.88,215.46,566.99,Unlimited,SBD,M,
Boys,67.13,14,Jacob Arguijo,Palacios,65.32,217.72,129.27,213.19,560.19,Unlimited,SBD,M,
Boys,67.13,15,Carlos Medrano,Santa Rosa,66.77,213.19,142.88,204.12,560.19,Unlimited,SBD,M,
Boys,67.13,16,Kaden Schnieder,Troy,65.5,238.14,129.27,190.51,557.92,Unlimited,SBD,M,
Boys,67.13,17,Leo Zapata,Bonham,66.5,208.65,133.81,215.46,557.92,Unlimited,SBD,M,
Boys,67.13,18,Aaron Rosales,Friona,66.77,217.72,138.35,199.58,555.65,Unlimited,SBD,M,
Boys,67.13,19,Aaron Sanchez,Crystal City,66.5,226.8,111.13,215.46,553.38,Unlimited,SBD,M,
Boys,67.13,20,Gavin Perez,Rio Hondo,65.77,222.26,120.2,208.65,551.11,Unlimited,SBD,M,
Boys,67.13,21,Giovanni Pacheco,Edinburg Idea College Prep,65.41,204.12,147.42,195.04,546.58,Unlimited,SBD,M,
Boys,67.13,22,Davion Johnson,Malakoff,66.59,204.12,136.08,204.12,544.31,Unlimited,SBD,M,
Boys,67.13,23,Krissangle Lopez,Rice,65.5,197.31,120.2,224.53,542.04,Unlimited,SBD,M,
Boys,67.13,DQ,Rick De Luna,Lyford,65.86,238.14,161.03,,,Unlimited,SBD,M,
Boys,67.13,DQ,Krisztian Dennis,Mount Vernon,66.13,174.63,,,,Unlimited,SBD,M,
Boys,74.84,1,GianCarlo Mirabal,Corpus Christi London,74.3,265.35,195.04,249.48,709.87,Unlimited,SBD,M,
Boys,74.84,2,Jonavyn Gonzalez,Dilley,72.76,290.3,176.9,240.4,707.6,Unlimited,SBD,M,
Boys,74.84,3,Jake Le,Corpus Christi London,74.03,267.62,170.1,242.67,680.39,Unlimited,SBD,M,
Boys,74.84,4,Kason Anding,Brock,72.17,240.4,185.97,242.67,669.05,Unlimited,SBD,M,
Boys,74.84,5,Aaron Acosta,Mathis,73.48,251.74,158.76,249.48,659.98,Unlimited,SBD,M,
Boys,74.84,6,Adam Dean,Pollok Central,73.48,254.01,163.29,226.8,644.1,Unlimited,SBD,M,
Boys,74.84,7,Andrew Garza,Falfurrias,71.58,247.21,136.08,251.74,635.03,Unlimited,SBD,M,
Boys,74.84,8,Jayden Ibarra,Poteet,70.85,254.01,140.61,231.33,625.96,Unlimited,SBD,M,
Boys,74.84,9,Joe Ray,Gladewater Sabine,73.12,249.48,151.95,222.26,623.69,Unlimited,SBD,M,
Boys,74.84,10,Josh Lovett,Blooming Grove,73.57,254.01,142.88,222.26,619.15,Unlimited,SBD,M,
Boys,74.84,11,Jesus Partida,Cotulla,72.94,244.94,145.15,219.99,610.08,Unlimited,SBD,M,
Boys,74.84,12,Case Etter,Boyd,74.75,242.67,124.74,240.4,607.81,Unlimited,SBD,M,
Boys,74.84,13,Jayden Kipers,Peaster,72.21,229.06,145.15,224.53,598.74,Unlimited,SBD,M,
Boys,74.84,14,Elijah Gonzalez,Dublin,73.57,238.14,133.81,226.8,598.74,Unlimited,SBD,M,
Boys,74.84,15,Nathan Roberts,Breckenridge,71.12,210.92,163.29,222.26,596.47,Unlimited,SBD,M,
Boys,74.84,16,Cayden Tello,Columbus,73.03,204.12,161.03,224.53,589.67,Unlimited,SBD,M,
Boys,74.84,17,Ramon Ortiz,Friona,71.4,224.53,120.2,240.4,585.13,Unlimited,SBD,M,
Boys,74.84,18,Jared Rodriguez,San Diego,73.12,219.99,142.88,215.46,578.33,Unlimited,SBD,M,
Boys,74.84,19,Collin Glass,Fairfield,72.57,210.92,145.15,215.46,571.53,Unlimited,SBD,M,
Boys,74.84,20,Fabio Perez,Dalhart,73.3,238.14,136.08,192.78,566.99,Unlimited,SBD,M,
Boys,74.84,DQ,Kyle Timmons,Little River Academy,73.21,217.72,147.42,,,Unlimited,SBD,M,
Boys,74.84,DQ,Easton Gonzalez,Comanche,73.39,,,,,Unlimited,SBD,M,
Boys,74.84,DQ,Bryson Sheppard,Buna,73.21,,,,,Unlimited,SBD,M,
Boys,82.1,1,Avdan Fish,Clyde,81.19,290.3,204.12,288.03,782.45,Unlimited,SBD,M,
Boys,82.1,2,Wyatt Lacy,Peaster,81.37,283.5,183.7,272.16,739.36,Unlimited,SBD,M,
Boys,82.1,3,Joseph Hernandez,Jourdanton,81.28,265.35,174.63,244.94,684.92,Unlimited,SBD,M,
Boys,82.1,4,Juan Flores,Santa Rosa,79.83,274.42,170.1,238.14,682.66,Unlimited,SBD,M,
Boys,82.1,5,Ayden Garcia,Santa Gertrudis Academy,81.37,260.82,158.76,249.48,669.05,Unlimited,SBD,M,
Boys,82.1,6,Cody Armstrong,Van Vleck,79.11,260.82,174.63,226.8,662.24,Unlimited,SBD,M,
Boys,82.1,7,Medellin Moses,Mineola,80.2,244.94,174.63,235.87,655.44,Unlimited,SBD,M,
Boys,82.1,8,Karson Thompson,Canadian,81.1,238.14,165.56,249.48,653.17,Unlimited,SBD,M,
Boys,82.1,9,John Garcia,Corpus Christi London,80.83,249.48,172.37,226.8,648.64,Unlimited,SBD,M,
Boys,82.1,10,Danny Munson,Peaster,80.2,254.01,154.22,226.8,635.03,Unlimited,SBD,M,
Boys,82.1,11,Alfredo Gomez,Taft,80.2,238.14,165.56,226.8,630.49,Unlimited,SBD,M,
Boys,82.1,12,Omar Morales Navarro,Nixon Smiley,81.01,231.33,158.76,238.14,628.23,Unlimited,SBD,M,
Boys,82.1,13,Devin Robertson,Quitman,81.28,235.87,142.88,247.21,625.96,Unlimited,SBD,M,
Boys,82.1,14,Gaviel Burrola,Kermit,80.47,240.4,151.95,226.8,619.15,Unlimited,SBD,M,
Boys,82.1,15,Aiden Rubalcaba,Lyford,81.83,256.28,142.88,215.46,614.62,Unlimited,SBD,M,
Boys,82.1,16,Joseph Luna,Crystal City,80.01,256.28,133.81,215.46,605.55,Unlimited,SBD,M,
Boys,82.1,17,Dominic Futrell,Whitney,79.29,235.87,140.61,226.8,603.28,Unlimited,SBD,M,
Boys,82.1,18,Chad Rozypal,Corpus Christi London,80.56,238.14,142.88,219.99,601.01,Unlimited,SBD,M,
Boys,82.1,19,Austin Pittman,Elkhart,81.47,219.99,151.95,224.53,596.47,Unlimited,SBD,M,
Boys,82.1,20,Delvon Federick,Queen City,80.47,226.8,122.47,244.94,594.21,Unlimited,SBD,M,
Boys,82.1,21,Jordan Casas,Dimmitt,81.28,290.3,149.69,,439.98,Unlimited,SB,M,
Boys,82.1,DQ,Griffin Cheslock,Early,77.7,,,,,Unlimited,SBD,M,
Boys,82.1,DQ,Cooper Kidwell,Iowa Park,80.83,,,,,Unlimited,SBD,M,
Boys,82.1,DQ,Gage Murphy,Shepherd,81.01,,,,,Unlimited,SBD,M,
Boys,82.1,DQ,Rafael Almaraz,Wallis Brazos,80.2,,,,,Unlimited,SBD,M,
Boys,82.1,DQ,Collin Anderson,Anderson-Shiro,81.65,222.26,140.61,,,Unlimited,SBD,M,
Boys,89.81,1,Gerardo Gonzalez,Cotulla,88.45,317.51,226.8,256.28,800.59,Unlimited,SBD,M,
Boys,89.81,2,Mario Diaz,Lytle,89.81,303.91,181.44,278.96,764.3,Unlimited,SBD,M,
Boys,89.81,3,DJ Losack,East Bernard,87.54,278.96,192.78,240.4,712.14,Unlimited,SBD,M,
Boys,89.81,4,Joel Villafuerte,Edinburg Idea College Prep,88.18,288.03,156.49,254.01,698.53,Unlimited,SBD,M,
Boys,89.81,5,Jesus Espino,Nixon Smiley,88.99,265.35,185.97,242.67,694,Unlimited,SBD,M,
Boys,89.81,6,Noel Kurtin,Little River Academy,89.81,272.16,154.22,265.35,691.73,Unlimited,SBD,M,
Boys,89.81,7,Juan Paredes,Rice,88.45,272.16,174.63,240.4,687.19,Unlimited,SBD,M,
Boys,89.81,8,Matthew Jarzombeck,Poth,87.63,247.21,165.56,272.16,684.92,Unlimited,SBD,M,
Boys,89.81,9,Cole Odom,Trinity,88.63,290.3,163.29,231.33,684.92,Unlimited,SBD,M,
Boys,89.81,10,Trent Bruno,Kountze,86.73,258.55,158.76,263.08,680.39,Unlimited,SBD,M,
Boys,89.81,11,Clay Kohleffel,Columbus,84.37,238.14,190.51,249.48,678.12,Unlimited,SBD,M,
Boys,89.81,12,Nathan Mendoza,Crystal City,89.27,265.35,151.95,235.87,653.17,Unlimited,SBD,M,
Boys,89.81,13,Damion Trevino,Mathis,83.82,240.4,174.63,235.87,650.91,Unlimited,SBD,M,
Boys,89.81,14,Jalen Smith,Malakoff,88.27,263.08,149.69,235.87,648.64,Unlimited,SBD,M,
Boys,89.81,15,Tristan Peterson,Gladewater Sabine,85.37,260.82,158.76,226.8,646.37,Unlimited,SBD,M,
Boys,89.81,16,Isaac Silva,San Angelo Grape Creek,88.72,272.16,145.15,229.06,646.37,Unlimited,SBD,M,
Boys,89.81,17,Taylor Warner,Brock,83.1,240.4,174.63,210.92,625.96,Unlimited,SBD,M,
Boys,89.81,18,Izik Delgado,Early,89.27,226.8,158.76,222.26,607.81,Unlimited,SBD,M,
Boys,89.81,DQ,Alex Penton,Dalhart,86.82,,,,,Unlimited,SBD,M,
Boys,89.81,DQ,Joshua Gaitan,Iowa Park,88.99,281.23,,,,Unlimited,SBD,M,
Boys,89.81,DQ,Jw Arnold,McGregor,89.27,226.8,,,,Unlimited,SBD,M,
Boys,89.81,DQ,Ashton Reyes,Breckenridge,84.96,204.12,,,,Unlimited,SBD,M,
Boys,89.81,DQ,Gavin Neville,Poth,88.81,249.48,,,,Unlimited,SBD,M,
Boys,89.81,DQ,Marcello Nieto,Taft,88,,,,,Unlimited,SBD,M,
Boys,99.79,1,Riley Finney,Clifton,97.98,290.3,249.48,251.74,791.52,Unlimited,SBD,M,
Boys,99.79,2,Caiden Moore,Mount Vernon,93.89,285.76,240.4,242.67,768.84,Unlimited,SBD,M,
Boys,99.79,3,Akilles Garcia,Orangefield,93.8,281.23,219.99,265.35,766.57,Unlimited,SBD,M,
Boys,99.79,4,Joseph Tuck,Troy,97.16,308.44,197.31,251.74,757.5,Unlimited,SBD,M,
Boys,99.79,5,Wyatt Jones,Lorena,98.25,294.84,181.44,260.82,737.09,Unlimited,SBD,M,
Boys,99.79,6,Victor Torres,El Maton Tidehaven,96.62,272.16,190.51,263.08,725.75,Unlimited,SBD,M,
Boys,99.79,7,Brooks Clippinger,Early,94.08,272.16,176.9,272.16,721.21,Unlimited,SBD,M,
Boys,99.79,8,Donald Neal Parks,Jourdanton,92.53,276.69,172.37,258.55,707.6,Unlimited,SBD,M,
Boys,99.79,9,Braylin Garcia,Leonard,96.62,256.28,213.19,231.33,700.8,Unlimited,SBD,M,
Boys,99.79,10,Mario Garcia,Friona,97.52,260.82,183.7,249.48,694,Unlimited,SBD,M,
Boys,99.79,11,Donovan Hector,Blanco,98.88,278.96,176.9,226.8,682.66,Unlimited,SBD,M,
Boys,99.79,12,Andrew Rendon,Corpus Christi London,91.99,238.14,190.51,251.74,680.39,Unlimited,SBD,M,
Boys,99.79,13,Diego Garcia,Orangefield,99.16,231.33,192.78,254.01,678.12,Unlimited,SBD,M,
Boys,99.79,14,Gavino Moreno,Nixon Smiley,97.16,254.01,165.56,256.28,675.85,Unlimited,SBD,M,
Boys,99.79,15,Caden King,Bells,98.25,244.94,179.17,247.21,671.32,Unlimited,SBD,M,
Boys,99.79,16,Alex Castro,Lyford,96.62,263.08,179.17,226.8,669.05,Unlimited,SBD,M,
Boys,99.79,17,Sam Black,Gladewater Sabine,98.25,281.23,147.42,233.6,662.24,Unlimited,SBD,M,
Boys,99.79,18,Gabe Lewis,Grand Saline,95.35,244.94,161.03,251.74,657.71,Unlimited,SBD,M,
Boys,99.79,19,Austin Ferriera,Brownfield,96.8,240.4,204.12,192.78,637.3,Unlimited,SBD,M,
Boys,99.79,DQ,Seth Wherry,Wallis Brazos,93.89,247.21,174.63,,,Unlimited,SBD,M,
Boys,99.79,DQ,Adam Caddell,Little River Academy,99.61,,,,,Unlimited,SBD,M,
Boys,99.79,DQ,Frank Perez,Friona,98.34,,,,,Unlimited,SBD,M,
Boys,99.79,DQ,Xavier Tijerina,Jourdanton,97.98,,,,,Unlimited,SBD,M,
Boys,99.79,DQ,Kasey Zientek,Wallis Brazos,98.34,,,,,Unlimited,SBD,M,
Boys,109.77,1,Landon Salinas,Fairfield,106.05,317.51,226.8,238.14,782.45,Unlimited,SBD,M,
Boys,109.77,2,Jordan De La Rosa,Santa Gertrudis Academy,108.23,310.71,197.31,272.16,780.18,Unlimited,SBD,M,
Boys,109.77,3,Caden Berry,Little River Academy,108.23,324.32,195.04,254.01,773.37,Unlimited,SBD,M,
Boys,109.77,4,Dominic Romero,San Diego,108.5,317.51,204.12,249.48,771.11,Unlimited,SBD,M,
Boys,109.77,5,Justin McBride,Bonham,109.68,317.51,206.38,244.94,768.84,Unlimited,SBD,M,
Boys,109.77,6,Ishmael Flores,Friona,106.96,303.91,213.19,247.21,764.3,Unlimited,SBD,M,
Boys,109.77,7,Leo Herrera,Hebbronville,100.06,281.23,199.58,276.69,757.5,Unlimited,SBD,M,
Boys,109.77,8,Chris Escobedo,Wallis Brazos,103.78,292.57,199.58,258.55,750.7,Unlimited,SBD,M,
Boys,109.77,9,Justin Dehoyos,Marion,106.68,290.3,204.12,254.01,748.43,Unlimited,SBD,M,
Boys,109.77,10,Dawson Brooks,Gladewater Sabine,107.59,278.96,210.92,226.8,716.68,Unlimited,SBD,M,
Boys,109.77,11,Duece Ingram,De Kalb,106.68,274.42,165.56,274.42,714.41,Unlimited,SBD,M,
Boys,109.77,12,Tug Turner,Little River Academy,104.69,292.57,183.7,235.87,712.14,Unlimited,SBD,M,
Boys,109.77,13,Steven Calico,Gladewater Sabine,104.96,272.16,188.24,247.21,707.6,Unlimited,SBD,M,
Boys,109.77,14,Jason Boyd,Bells,107.59,297.1,183.7,226.8,707.6,Unlimited,SBD,M,
Boys,109.77,15,Chris Turley,Buna,104.33,294.84,176.9,231.33,703.07,Unlimited,SBD,M,
Boys,109.77,16,Kaden Elrod,Blanco,109.5,299.37,170.1,226.8,696.26,Unlimited,SBD,M,
Boys,109.77,17,Dario Cervantes,Valley View,106.59,281.23,170.1,235.87,687.19,Unlimited,SBD,M,
Boys,109.77,18,Adahir Ruiz,Poth,106.96,260.82,183.7,233.6,678.12,Unlimited,SBD,M,
Boys,109.77,DQ,Corbyn Oden,Iowa Park,105.23,,,,,Unlimited,SBD,M,
Boys,109.77,DQ,Barrett Browning,Tuscola Jim Ned,107.68,267.62,183.7,,,Unlimited,SBD,M,
Boys,124.74,1,Danilo Lugo,Jourdanton,116.12,351.53,258.55,308.44,918.52,Unlimited,SBD,M,
Boys,124.74,2,Julian Moreno,Santa Rosa,120.66,317.51,215.46,294.84,827.81,Unlimited,SBD,M,
Boys,124.74,3,Kohl Powell,Vanderbilt Industrial,122.11,294.84,226.8,260.82,782.45,Unlimited,SBD,M,
Boys,124.74,4,Taulepeti Valai,Universal City Randolph,120.93,306.17,226.8,247.21,780.18,Unlimited,SBD,M,
Boys,124.74,5,Marlon Hayes,Daingerfield,122.11,303.91,226.8,244.94,775.64,Unlimited,SBD,M,
Boys,124.74,6,John Worthington,Paradise,121.11,306.17,215.46,251.74,773.37,Unlimited,SBD,M,
Boys,124.74,7,Emmanul Hernandez,Newton,124.74,310.71,190.51,272.16,773.37,Unlimited,SBD,M,
Boys,124.74,8,Brady Williams,Fairfield,122.2,306.17,222.26,226.8,755.23,Unlimited,SBD,M,
Boys,124.74,9,Evan Clapp,Brock,117.93,288.03,217.72,233.6,739.36,Unlimited,SBD,M,
Boys,124.74,10,Ariel Alvarado,San Diego,118.39,317.51,183.7,226.8,728.02,Unlimited,SBD,M,
Boys,124.74,11,Jacob Braun,Early,113.99,288.03,183.7,251.74,723.48,Unlimited,SBD,M,
Boys,124.74,12,Daniel Weidner,Poth,124.1,283.5,167.83,254.01,705.34,Unlimited,SBD,M,
Boys,124.74,13,Sebastian De La Rosa,Kermit,123.38,260.82,149.69,231.33,641.83,Unlimited,SBD,M,
Boys,124.74,14,Adrian Macias,Childress,112.22,226.8,183.7,222.26,632.76,Unlimited,SBD,M,
Boys,124.74,DQ,Cj Porter,Troy,111.95,281.23,151.95,,,Unlimited,SBD,M,
Boys,124.74,DQ,Carlos Salcido,Stanton,114.49,276.69,158.76,,,Unlimited,SBD,M,
Boys,124.74,DQ,Alex Salazar,Grand Saline,122.65,283.5,192.78,,,Unlimited,SBD,M,
Boys,139.71,1,Robert Sanchez,Cotulla,124.92,344.73,238.14,263.08,845.95,Unlimited,SBD,M,
Boys,139.71,2,Jackson Blackwell,Lorena,136.8,326.59,226.8,260.82,814.2,Unlimited,SBD,M,
Boys,139.71,3,Cason Green,Iowa Park,127.46,294.84,217.72,235.87,748.43,Unlimited,SBD,M,
Boys,139.71,4,Victor Moreno,Cotulla,139.53,272.16,210.92,260.82,743.89,Unlimited,SBD,M,
Boys,139.71,5,Gustavo Perez,Callisburg,138.16,294.84,213.19,231.33,739.36,Unlimited,SBD,M,
Boys,139.71,6,Solomon Reid,Huntington,132.81,251.74,176.9,235.87,664.51,Unlimited,SBD,M,
Boys,139.71,7,Cole Newell,Boling,133.9,254.01,188.24,217.72,659.98,Unlimited,SBD,M,
Boys,139.71,8,Jacinto Briones,Tulia,126.01,254.01,136.08,226.8,616.89,Unlimited,SBD,M,
Boys,139.71,DQ,Liam Dalton,Tuscola Jim Ned,132.9,,,,,Unlimited,SBD,M,
Boys,139.71,DQ,Leithan Beck,Shepherd,133.17,,,,,Unlimited,SBD,M,
Boys,139.71,DQ,Adren Flores,Hebbronville,125.74,272.16,199.58,,,Unlimited,SBD,M,
Boys,139.71,DQ,Bryce Clark,Jefferson,136.89,,,,,Unlimited,SBD,M,
Boys,139.71,DQ,Xavier West,Mexia,127.73,306.17,158.76,,,Unlimited,SBD,M,
Boys,139.71+,1,Nelson Quintero,Edinburg Idea College Prep,153.86,333.39,217.72,274.42,825.54,Unlimited,SBD,M,
Boys,139.71+,2,Dalton Duncan,Merkel,153.59,294.84,190.51,260.82,746.16,Unlimited,SBD,M,
Boys,139.71+,3,Ben Turner,Dalhart,159.48,333.39,179.17,233.6,746.16,Unlimited,SBD,M,
Boys,139.71+,4,Orlando Feregrino,Little River Academy,139.98,265.35,233.6,240.4,739.36,Unlimited,SBD,M,
Boys,139.71+,5,Hunter Williams,Newton,144.7,267.62,183.7,278.96,730.28,Unlimited,SBD,M,
Boys,139.71+,6,Bryce Everett,Arp,164.11,278.96,213.19,231.33,723.48,Unlimited,SBD,M,
Boys,139.71+,7,Nick Smith,Huntington,148.23,269.89,206.38,242.67,718.94,Unlimited,SBD,M,
Boys,139.71+,8,Zane Pennington,Hardin,144.7,274.42,185.97,240.4,700.8,Unlimited,SBD,M,
Boys,139.71+,9,Landon Deters,Comanche,174.54,272.16,163.29,251.74,687.19,Unlimited,SBD,M,
Boys,139.71+,10,Johnavion Dees,Troy,140.7,226.8,188.24,238.14,653.17,Unlimited,SBD,M,
Boys,139.71+,11,Carson Culp,Pottsboro,164.97,290.3,151.95,183.7,625.96,Unlimited,SBD,M,
Boys,139.71+,DQ,Israel Moncada,Crystal City,143.79,,,,,Unlimited,SBD,M,
