Division,WeightClassKg,Place,Name,Team,BodyweightKg,Best3SquatKg,Best3BenchKg,Best3DeadliftKg,TotalKg,Equipment,Event,Sex,BirthDate
Boys,51.71,1,Brodie Flores,Victoria West,49.17,183.7,111.13,174.63,469.47,Unlimited,SBD,M,
Boys,51.71,2,Gabriel Guzman,Mission Sharyland,51.62,181.44,77.11,195.04,453.59,Unlimited,SBD,M,
Boys,51.71,3,Mark Ochoa,Gregory-Portland,50.53,158.76,97.52,183.7,439.98,Unlimited,SBD,M,
Boys,51.71,4,Eduardo Soto,Brownsville Veterans Memorial,51.44,165.56,90.72,183.7,439.98,Unlimited,SBD,M,
Boys,51.71,5,Julian Cabrera,Mercedes,51.53,174.63,92.99,170.1,437.72,Unlimited,SBD,M,
Boys,51.71,6,Victor Roberson,Victoria East,50.89,172.37,95.25,158.76,426.38,Unlimited,SBD,M,
Boys,51.71,7,Dashel Burrows,Sharyland Pioneer,50.8,158.76,102.06,163.29,424.11,Unlimited,SBD,M,
Boys,51.71,8,Leonardo Sauceda,Edinburg Economedes,51.17,151.95,102.06,163.29,417.3,Unlimited,SBD,M,
Boys,51.71,9,Humberto Soto,Brownsville Veterans Memorial,50.08,163.29,102.06,145.15,410.5,Unlimited,SBD,M,
Boys,51.71,10,Joe Cruz,Edinburg North,51.62,136.08,90.72,183.7,410.5,Unlimited,SBD,M,
Boys,51.71,11,Carlos Cantu,McAllen Memorial,49.9,145.15,99.79,158.76,403.7,Unlimited,SBD,M,
Boys,51.71,12,Caleb Moreno,La Joya,51.17,142.88,83.91,158.76,385.55,Unlimited,SBD,M,
Boys,51.71,DQ,Gabriel Ozuna,Edinburg Vela,51.07,,,,,Unlimited,SBD,M,
Boys,55.79,1,Deondre Moody,Donna North,55.52,226.8,165.56,204.12,596.47,Unlimited,SBD,M,
Boys,55.79,2,Ethan Hernandez,Harlingen South,55.25,208.65,131.54,190.51,530.7,Unlimited,SBD,M,
Boys,55.79,3,Douglas Armstrong,Donna,55.34,201.85,106.59,217.72,526.17,Unlimited,SBD,M,
Boys,55.79,4,Cesar Perez,Edcouch-Elsa,55.61,183.7,124.74,210.92,519.36,Unlimited,SBD,M,
Boys,55.79,5,Gerardo Sanchez,Mercedes,54.52,197.31,102.06,213.19,512.56,Unlimited,SBD,M,
Boys,55.79,6,Christopher Lopez,Los Fresnos,55.52,195.04,95.25,199.58,489.88,Unlimited,SBD,M,
Boys,55.79,7,Joe Alarcon,Victoria East,54.61,183.7,111.13,174.63,469.47,Unlimited,SBD,M,
Boys,55.79,8,Jaden Rodriguez,Donna,53.8,163.29,102.06,174.63,439.98,Unlimited,SBD,M,
Boys,55.79,9,Yahir Hernandez,Edinburg North,54.61,165.56,108.86,161.03,435.45,Unlimited,SBD,M,
Boys,55.79,10,Erasmo Rodriguez,La Joya,54.98,172.37,92.99,165.56,430.91,Unlimited,SBD,M,
Boys,55.79,DQ,Gael Espino,Edinburg,55.25,158.76,,,,Unlimited,SBD,M,
Boys,55.79,DQ,Job Chapa,Brownsville Rivera,54.7,142.88,,,,Unlimited,SBD,M,
Boys,59.87,1,Jorge Martinez,Los Fresnos,59.6,224.53,156.49,222.26,603.28,Unlimited,SBD,M,
Boys,59.87,2,Jeremy Salazar,Donna North,59.69,240.4,147.42,208.65,596.47,Unlimited,SBD,M,
Boys,59.87,3,Martin Alvarez,Weslaco,58.97,226.8,124.74,233.6,585.13,Unlimited,SBD,M,
Boys,59.87,4,Ulises Enriquez,Mercedes,59.87,226.8,127.01,217.72,571.53,Unlimited,SBD,M,
Boys,59.87,5,Rick Reyna,McAllen Memorial,58.33,226.8,111.13,226.8,564.72,Unlimited,SBD,M,
Boys,59.87,6,Isaiah Loya,Brownsville Hanna,58.69,188.24,142.88,233.6,564.72,Unlimited,SBD,M,
Boys,59.87,7,Brian Maldonado,Mercedes,59.78,208.65,111.13,213.19,532.97,Unlimited,SBD,M,
Boys,59.87,8,Ruben Robles,McAllen Memorial,58.69,199.58,117.93,197.31,514.83,Unlimited,SBD,M,
Boys,59.87,9,Angel Trevino,San Benito,59.87,201.85,129.27,183.7,514.83,Unlimited,SBD,M,
Boys,59.87,10,Santi Rogel,Donna North,59.24,195.04,95.25,208.65,498.95,Unlimited,SBD,M,
Boys,59.87,11,Justin Flores,Edcouch-Elsa,59.78,172.37,102.06,190.51,464.93,Unlimited,SBD,M,
Boys,59.87,DQ,Eddie Gonzalez,Mercedes,59.87,,,,,Unlimited,SBD,M,
Boys,67.13,1,Devon Trevino,Mercedes,66.32,267.62,172.37,251.74,691.73,Unlimited,SBD,M,
Boys,67.13,2,Mason Gwosdz,Victoria East,66.32,281.23,147.42,242.67,671.32,Unlimited,SBD,M,
Boys,67.13,3,Gadiel Andrade,Laredo United,65.68,231.33,149.69,251.74,632.76,Unlimited,SBD,M,
Boys,67.13,4,Isaiah Castro,Mercedes,66.22,254.01,145.15,226.8,625.96,Unlimited,SBD,M,
Boys,67.13,5,Draven Garza,Victoria East,65.32,242.67,149.69,229.06,621.42,Unlimited,SBD,M,
Boys,67.13,6,Jonathan Hernandez,Edinburg Economedes,66.5,206.38,129.27,274.42,610.08,Unlimited,SBD,M,
Boys,67.13,7,Michael Lerma,Weslaco,66.5,260.82,117.93,226.8,605.55,Unlimited,SBD,M,
Boys,67.13,8,Nick Perez,Brownsville Pace,66.04,226.8,142.88,226.8,596.47,Unlimited,SBD,M,
Boys,67.13,9,Diego Mercado,McAllen Rowe,64.32,247.21,142.88,204.12,594.21,Unlimited,SBD,M,
Boys,67.13,10,Aiden Scurlock,McAllen,66.41,219.99,136.08,206.38,562.45,Unlimited,SBD,M,
Boys,67.13,DQ,Julius Molina,Edinburg North,67.04,,,,,Unlimited,SBD,M,
Boys,67.13,DQ,Tristen Moreno,Edinburg North,64.59,,,,,Unlimited,SBD,M,
Boys,74.84,1,Jason Duran,Victoria West,74.57,290.3,167.83,260.82,718.94,Unlimited,SBD,M,
Boys,74.84,2,Devin Aguilar,Edinburg North,73.84,285.76,188.24,226.8,700.8,Unlimited,SBD,M,
Boys,74.84,3,Juan Sanchez,Edinburg North,73.48,288.03,154.22,249.48,691.73,Unlimited,SBD,M,
Boys,74.84,4,Jesus Cantu,Edinburg Economedes,73.94,272.16,165.56,226.8,664.51,Unlimited,SBD,M,
Boys,74.84,5,Randal Delgado,Victoria East,74.03,256.28,163.29,240.4,659.98,Unlimited,SBD,M,
Boys,74.84,6,Nickolas Guitron,Los Fresnos,71.4,238.14,163.29,254.01,655.44,Unlimited,SBD,M,
Boys,74.84,7,Jaidan Alaniz,La Joya,74.39,256.28,136.08,260.82,653.17,Unlimited,SBD,M,
Boys,74.84,8,Armando Chapa,La Joya Palmview,73.39,256.28,163.29,229.06,648.64,Unlimited,SBD,M,
Boys,74.84,9,Isaac Estrada,Edcouch-Elsa,74.3,260.82,147.42,240.4,648.64,Unlimited,SBD,M,
Boys,74.84,10,Eduardo Cervantes,McAllen,73.39,247.21,161.03,226.8,635.03,Unlimited,SBD,M,
Boys,74.84,11,Jacob Faz,Edinburg North,74.39,219.99,136.08,254.01,610.08,Unlimited,SBD,M,
Boys,74.84,DQ,Israel Magana,Mercedes,74.3,,,,,Unlimited,SBD,M,
Boys,82.1,1,Jacob Broussard,Brownsville Hanna,79.92,272.16,210.92,238.14,721.21,Unlimited,SBD,M,
Boys,82.1,2,Angel Sanchez,Donna North,80.29,283.5,174.63,242.67,700.8,Unlimited,SBD,M,
Boys,82.1,3,Heston Garza,Edcouch-Elsa,82.1,267.62,161.03,251.74,680.39,Unlimited,SBD,M,
Boys,82.1,4,Jaime Trevino #2,Harlingen,81.19,272.16,181.44,204.12,657.71,Unlimited,SBD,M,
Boys,82.1,5,Lupe Garcia,PSJA Southwest,81.37,249.48,154.22,254.01,657.71,Unlimited,SBD,M,
Boys,82.1,6,Angel Briseno,Brownsville Veterans Memorial,81.47,260.82,117.93,278.96,657.71,Unlimited,SBD,M,
Boys,82.1,7,Jordan Stafford,Victoria East,78.29,240.4,151.95,258.55,650.91,Unlimited,SBD,M,
Boys,82.1,8,Kayden Leal,Victoria West,82.1,238.14,165.56,229.06,632.76,Unlimited,SBD,M,
Boys,82.1,9,Daniel Tirado,San Benito,80.56,226.8,158.76,235.87,621.42,Unlimited,SBD,M,
Boys,82.1,DQ,Yashid Cobos,Edinburg Vela,77.93,,,,,Unlimited,SBD,M,
Boys,82.1,DQ,Angel Chapa,La Joya Palmview,81.65,,,,,Unlimited,SBD,M,
Boys,82.1,DQ,Jacob Martinez,PSJA North,81.37,278.96,,,,Unlimited,SBD,M,
Boys,82.1,DQ,Reik Castro,Weslaco,80.2,,,,,Unlimited,SBD,M,
Boys,82.1,DQ,Marcelo Cantu,Mission Veterans Memorial,79.83,,,,,Unlimited,SBD,M,
Boys,89.81,1,Demitri Ayala,McAllen,88.09,322.05,229.06,319.78,870.9,Unlimited,SBD,M,
Boys,89.81,2,Noah Neibrandt,Victoria West,87.54,294.84,185.97,274.42,755.23,Unlimited,SBD,M,
Boys,89.81,3,Rafael Aguirre,Edinburg North,84.91,278.96,174.63,274.42,728.02,Unlimited,SBD,M,
Boys,89.81,4,Adrian Lizcano,Harlingen,86.36,267.62,183.7,229.06,680.39,Unlimited,SBD,M,
Boys,89.81,5,Seth Hernandez,Edinburg,88.45,256.28,183.7,235.87,675.85,Unlimited,SBD,M,
Boys,89.81,6,Sterling Tomlin,Harlingen,88.63,258.55,192.78,224.53,675.85,Unlimited,SBD,M,
Boys,89.81,7,Daniel De La Cruz,McAllen Memorial,88.45,276.69,158.76,229.06,664.51,Unlimited,SBD,M,
Boys,89.81,8,Francisco Marichalar,Edinburg Economedes,88.18,251.74,174.63,208.65,635.03,Unlimited,SBD,M,
Boys,89.81,DQ,Alan Hernandez,Edinburg,88.45,,,,,Unlimited,SBD,M,
Boys,89.81,DQ,Aiden Trevino,Edinburg North,88.54,,,,,Unlimited,SBD,M,
Boys,89.81,DQ,Andres Garza,PSJA North,88.54,,,,,Unlimited,SBD,M,
Boys,89.81,DQ,Jose Gallegos,PSJA Southwest,89.09,283.5,,,,Unlimited,SBD,M,
Boys,99.79,1,Humberto Leal,Donna,98.07,301.64,190.51,244.94,737.09,Unlimited,SBD,M,
Boys,99.79,2,Pedro Ochoa,Brownsville Hanna,93.71,283.5,183.7,256.28,723.48,Unlimited,SBD,M,
Boys,99.79,3,Jacob Ortiz,Harlingen,99.06,254.01,208.65,251.74,714.41,Unlimited,SBD,M,
Boys,99.79,4,Tomas Longoria,Harlingen South,93.44,274.42,190.51,247.21,712.14,Unlimited,SBD,M,
Boys,99.79,5,Anthony Gonzalez,Edinburg Economedes,96.07,265.35,170.1,272.16,707.6,Unlimited,SBD,M,
Boys,99.79,6,Pablo Solis,Rio Grande City,96.98,272.16,156.49,278.96,707.6,Unlimited,SBD,M,
Boys,99.79,7,Isaac Ramirez,San Benito,94.98,265.35,165.56,263.08,694,Unlimited,SBD,M,
Boys,99.79,8,Jose Rosas,Brownsville Pace,97.89,251.74,199.58,222.26,673.58,Unlimited,SBD,M,
Boys,99.79,9,Juan Rodriguez,Edinburg Vela,93.98,249.48,176.9,231.33,657.71,Unlimited,SBD,M,
Boys,99.79,DQ,Isaac Sanchez,San Benito,97.61,,,,,Unlimited,SBD,M,
Boys,99.79,DQ,Tomas Mendez,PSJA North,97.07,,,,,Unlimited,SBD,M,
Boys,99.79,DQ,Brandon Valdez,Weslaco,98.25,,,,,Unlimited,SBD,M,
Boys,99.79,DQ,Ethan Anciso,Mercedes,99.06,,,,,Unlimited,SBD,M,
Boys,109.77,1,Aydin Torres,Edinburg North,107.41,310.71,240.4,229.06,780.18,Unlimited,SBD,M,
Boys,109.77,2,Omar Guerrero,Donna North,101.33,310.71,226.8,240.4,777.91,Unlimited,SBD,M,
Boys,109.77,3,Gilbert Lerma,Harlingen South,102.42,303.91,201.85,265.35,771.11,Unlimited,SBD,M,
Boys,109.77,4,Juan Acosta,Brownsville Hanna,107.68,317.51,204.12,247.21,768.84,Unlimited,SBD,M,
Boys,109.77,5,Weston Bonneau,Gregory-Portland,107.77,278.96,242.67,240.4,762.04,Unlimited,SBD,M,
Boys,109.77,6,Gustavo Escandon,McAllen Memorial,102.06,294.84,199.58,265.35,759.77,Unlimited,SBD,M,
Boys,109.77,7,Nathaniel Navarro,Edinburg North,108.32,303.91,199.58,254.01,757.5,Unlimited,SBD,M,
Boys,109.77,8,Ariel Segura,Edinburg,108.86,278.96,201.85,274.42,755.23,Unlimited,SBD,M,
Boys,109.77,9,Noe Alegria,Donna,107.86,294.84,185.97,226.8,707.6,Unlimited,SBD,M,
Boys,109.77,10,Reno Villanueva,Harlingen South,102.78,276.69,183.7,235.87,696.26,Unlimited,SBD,M,
Boys,109.77,11,Julian Lopez,PSJA Memorial,102.97,272.16,170.1,249.48,691.73,Unlimited,SBD,M,
Boys,109.77,DQ,Eduardo Herrera,La Joya Palmview,104.19,,,,,Unlimited,SBD,M,
Boys,124.74,1,Carlos Rodriguez,McAllen Memorial,118.48,333.39,235.87,272.16,841.41,Unlimited,SBD,M,
Boys,124.74,2,Jason Escobar,McAllen Memorial,123.47,317.51,226.8,272.16,816.47,Unlimited,SBD,M,
Boys,124.74,3,Kayvin De La Rosa,Los Fresnos,117.75,322.05,170.1,272.16,764.3,Unlimited,SBD,M,
Boys,124.74,4,Angel Rios,Laredo United South,118.12,265.35,247.21,249.48,762.04,Unlimited,SBD,M,
Boys,124.74,5,Anthony de Leon,Harlingen,119.39,283.5,219.99,242.67,746.16,Unlimited,SBD,M,
Boys,124.74,6,Jose Escojido,PSJA Southwest,123.38,283.5,204.12,238.14,725.75,Unlimited,SBD,M,
Boys,124.74,7,Juan Meza,Donna,122.38,297.1,181.44,242.67,721.21,Unlimited,SBD,M,
Boys,124.74,8,Kaleb Loredo,Brownsville Pace,122.74,283.5,174.63,260.82,718.94,Unlimited,SBD,M,
Boys,124.74,9,Ezra Echavarria,Harlingen South,113.04,281.23,199.58,235.87,716.68,Unlimited,SBD,M,
Boys,124.74,10,Arturo Gonzalez,Edcouch-Elsa,116.3,294.84,167.83,240.4,703.07,Unlimited,SBD,M,
Boys,124.74,11,Oliver Hernandez,Mercedes,120.11,274.42,183.7,219.99,678.12,Unlimited,SBD,M,
Boys,124.74,DQ,Sergio Avitua,PSJA,112.13,,,,,Unlimited,SBD,M,
Boys,139.71,1,Isaiah Loya,Donna North,136.35,358.34,219.99,251.74,830.07,Unlimited,SBD,M,
Boys,139.71,2,Ezequiel Ozuna,McAllen Memorial,138.16,317.51,204.12,256.28,777.91,Unlimited,SBD,M,
Boys,139.71,3,Rene Gomez,McAllen Memorial,132.45,319.78,215.46,238.14,773.37,Unlimited,SBD,M,
Boys,139.71,4,Anthony Johnson III,Harlingen,137.08,317.51,215.46,240.4,773.37,Unlimited,SBD,M,
Boys,139.71,5,Gus De La Cerda,Donna,131.27,317.51,192.78,260.82,771.11,Unlimited,SBD,M,
Boys,139.71,6,Christopher Morales,Rio Grande City,136.62,331.12,176.9,244.94,752.96,Unlimited,SBD,M,
Boys,139.71,7,Matthew Reyes,Weslaco,133.17,294.84,197.31,244.94,737.09,Unlimited,SBD,M,
Boys,139.71,8,Rosario Perez,Edcouch-Elsa,125.28,297.1,197.31,231.33,725.75,Unlimited,SBD,M,
Boys,139.71,9,Jaeden Fraire,Victoria West,135.71,292.57,195.04,238.14,725.75,Unlimited,SBD,M,
Boys,139.71,10,Nestor Rodriguez,Brownsville Hanna,125.1,249.48,199.58,240.4,689.46,Unlimited,SBD,M,
Boys,139.71,11,Robert Cruz,San Benito,133.63,278.96,183.7,206.38,669.05,Unlimited,SBD,M,
Boys,139.71,DQ,Daimien Bramlett,Edinburg Vela,133.81,,,,,Unlimited,SBD,M,
Boys,139.71,DQ,Ethan Hinojosa,Sharyland Pioneer,127.55,,,,,Unlimited,SBD,M,
Boys,139.71+,1,Jose Lugo,Victoria East,148.42,371.95,272.16,272.16,916.26,Unlimited,SBD,M,
Boys,139.71+,2,Martin Maldonado,Weslaco,178.81,290.3,226.8,247.21,764.3,Unlimited,SBD,M,
Boys,139.71+,3,Michael Pina,Victoria East,141.07,294.84,199.58,226.8,721.21,Unlimited,SBD,M,
Boys,139.71+,4,Adalberto Sanchez,Sharyland Pioneer,151.95,324.32,190.51,204.12,718.94,Unlimited,SBD,M,
Boys,139.71+,5,Ivan Cantu,PSJA Memorial,148.78,278.96,190.51,213.19,682.66,Unlimited,SBD,M,
Boys,139.71+,6,Aden De Leon,McAllen,141.7,278.96,219.99,174.63,673.58,Unlimited,SBD,M,
Boys,139.71+,7,Leo Garza,Brownsville Rivera,140.25,249.48,142.88,233.6,625.96,Unlimited,SBD,M,
Boys,139.71+,8,Rene Hernandez,Roma,153.86,254.01,172.37,190.51,616.89,Unlimited,SBD,M,
Boys,139.71+,9,Jovanny Lopez,Donna North,140.61,238.14,145.15,190.51,573.79,Unlimited,SBD,M,
Boys,139.71+,DQ,Zeke Torres,Brownsville Rivera,142.7,,,,,Unlimited,SBD,M,
Boys,139.71+,DQ,Alexander Sosa,La Joya,162.39,199.58,,,,Unlimited,SBD,M,
Boys,139.71+,DQ,Marco Diaz,Edinburg Vela,215.46,,,,,Unlimited,SBD,M,
