Division,WeightClassKg,Place,Name,Team,BodyweightKg,Best3SquatKg,Best3BenchKg,Best3DeadliftKg,TotalKg,Equipment,Event,Sex
Junior Varsity,67.13,1,Josh Tiah,Manor,65.77,145.15,95.25,185.97,426.38,Single-ply,SBD,M
Junior Varsity,67.13,2,Alex Kirkendall,Austin Anderson,67.13,113.4,86.18,136.08,335.66,Single-ply,SBD,M
Junior Varsity,67.13,3,David Bushong,Austin Anderson,63.05,106.59,65.77,131.54,303.91,Single-ply,SBD,M
Junior Varsity,82.1,1,Ivan Gutierrez,Austin Anderson,75.3,136.08,86.18,170.1,392.36,Single-ply,SBD,M
Junior Varsity,82.1,2,Andrew Cotter,Austin Anderson,79.83,106.59,79.38,136.08,322.05,Single-ply,SBD,M
Junior Varsity,82.1,3,Dante Dangerfield,Manor,79.38,102.06,74.84,136.08,312.98,Single-ply,SBD,M
Junior Varsity,82.1,NS,Breon Kelly,Manor,,,,,,Single-ply,SBD,M
Junior Varsity,89.81,1,John Henry,Manor,86.64,149.69,99.79,174.63,424.11,Single-ply,SBD,M
Junior Varsity,89.81,2,Jordan Jackson #2,Pflugerville Connally,89.81,124.74,86.18,158.76,369.68,Single-ply,SBD,M
Junior Varsity,89.81,3,Peter Ramsdale,Austin Anderson,86.64,108.86,79.38,113.4,301.64,Single-ply,SBD,M
Junior Varsity,99.79,1,Adrian Hunter,Manor,93.44,179.17,102.06,229.06,510.29,Single-ply,SBD,M
Junior Varsity,99.79,2,Erick Fowler,Manor,96.62,179.17,120.2,208.65,508.02,Single-ply,SBD,M
Junior Varsity,99.79,3,Jamal Collins,Manor,90.72,136.08,106.59,199.58,442.25,Single-ply,SBD,M
Junior Varsity,99.79,4,Chris Anderson #10,Pflugerville Connally,94.8,136.08,86.18,165.56,387.82,Single-ply,SBD,M
Junior Varsity,109.77,1,Chase Hall,Pflugerville Connally,108.41,174.63,99.79,192.78,467.2,Single-ply,SBD,M
Junior Varsity,109.77,2,Austin Moreno,Pflugerville Connally,106.59,147.42,92.99,158.76,399.16,Single-ply,SBD,M
Junior Varsity,124.74,1,Andrew Mokry,Taylor,120.66,161.03,97.52,167.83,426.38,Single-ply,SBD,M
Boys,51.71,1,Sebastian Gonzalez,Manor,50.35,83.91,45.36,92.99,222.26,Single-ply,SBD,M
Boys,51.71,NS,Timothy Robinson,Waco,,,,,,Single-ply,SBD,M
Boys,55.79,1,Josh Davis,Killeen Shoemaker,55.79,163.29,99.79,165.56,428.64,Single-ply,SBD,M
Boys,55.79,2,Alec Webster,Killeen Shoemaker,55.79,142.88,106.59,170.1,419.57,Single-ply,SBD,M
Boys,55.79,3,Davion Aldridge,Hutto,55.79,154.22,86.18,161.03,401.43,Single-ply,SBD,M
Boys,55.79,4,Sammy Ortega,Hutto,54.43,145.15,74.84,158.76,378.75,Single-ply,SBD,M
Boys,59.87,1,Lorenzo Sanchez,Taylor,59.42,176.9,102.06,183.7,462.66,Single-ply,SBD,M
Boys,59.87,2,Ernan Lopez,Hutto,59.87,149.69,90.72,161.03,401.43,Single-ply,SBD,M
Boys,59.87,3,Gary Mackey,Manor,59.87,142.88,81.65,149.69,374.21,Single-ply,SBD,M
Boys,67.13,1,Joseph Marmolejo,Taylor,65.77,179.17,106.59,199.58,485.34,Single-ply,SBD,M
Boys,67.13,2,Jordan Lawrence,Pflugerville Connally,67.13,158.76,104.33,181.44,444.52,Single-ply,SBD,M
Boys,67.13,3,Derek Camero,Hutto,67.13,170.1,97.52,172.37,439.98,Single-ply,SBD,M
Boys,67.13,4,Christian Lopez #5,Taylor,66.22,149.69,92.99,176.9,419.57,Single-ply,SBD,M
Boys,67.13,5,Caden Forisha,Hutto,66.68,142.88,97.52,170.1,410.5,Single-ply,SBD,M
Boys,67.13,NS,Joseph Lopez #8,Taylor,,,,,,Single-ply,SBD,M
Boys,74.84,1,Daniel Hernandez #22,Taylor,73.94,219.99,120.2,213.19,553.38,Single-ply,SBD,M
Boys,74.84,2,Justis Owens,Hutto,70.31,204.12,115.67,192.78,512.56,Single-ply,SBD,M
Boys,74.84,3,Jamiah Payton,Pflugerville Connally,74.84,183.7,120.2,195.04,498.95,Single-ply,SBD,M
Boys,74.84,4,David Coolidge,Manor,74.84,181.44,102.06,204.12,487.61,Single-ply,SBD,M
Boys,74.84,5,David Anderson #3,Killeen Shoemaker,74.84,170.1,120.2,174.63,464.93,Single-ply,SBD,M
Boys,74.84,6,Cole Ballard,Hutto,74.84,170.1,106.59,183.7,460.4,Single-ply,SBD,M
Boys,74.84,7,Peter Tan,Pflugerville,70.31,136.08,106.59,165.56,408.23,Single-ply,SBD,M
Boys,74.84,8,Marquise Davis,Waco,68.95,145.15,83.91,158.76,387.82,Single-ply,SBD,M
Boys,74.84,9,Ernesto Castro,Pflugerville,69.85,120.2,77.11,142.88,340.19,Single-ply,SBD,M
Boys,74.84,10,Michael Hernandez,Pflugerville,68.49,120.2,77.11,140.61,337.93,Single-ply,SBD,M
Boys,82.1,1,Everado Araujo,Taylor,82.1,235.87,133.81,213.19,582.87,Single-ply,SBD,M
Boys,82.1,2,Chukie Ojiyi,Pflugerville Hendrickson,81.19,249.48,129.27,190.51,569.26,Single-ply,SBD,M
Boys,82.1,3,Chris Hatch,Taylor,81.19,204.12,142.88,197.31,544.31,Single-ply,SBD,M
Boys,82.1,4,Phillip Wilson,Pflugerville Hendrickson,80.74,197.31,111.13,181.44,489.88,Single-ply,SBD,M
Boys,82.1,5,Kris Rodriguez,Hutto,81.65,190.51,102.06,192.78,485.34,Single-ply,SBD,M
Boys,82.1,6,Braxton Buchanan,Hutto,79.83,158.76,108.86,154.22,421.84,Single-ply,SBD,M
Boys,82.1,7,Danny Gutierrez,Waco,79.38,151.95,102.06,163.29,417.3,Single-ply,SBD,M
Boys,82.1,8,Craig McWilliams,Pflugerville,78.93,129.27,99.79,170.1,399.16,Single-ply,SBD,M
Boys,82.1,9,Jairon Horn,Pflugerville,82.1,156.49,115.67,111.13,383.29,Single-ply,SBD,M
Boys,82.1,10,Jordan Gilbert,Waco,78.02,113.4,79.38,142.88,335.66,Single-ply,SBD,M
Boys,89.81,1,Tyrone Owens,Manor,89.36,238.14,149.69,226.8,614.62,Single-ply,SBD,M
Boys,89.81,2,Nika Davis,Waco,88,217.72,138.35,231.33,587.4,Single-ply,SBD,M
Boys,89.81,3,Luke Evans #2,Hutto,86.64,208.65,127.01,226.8,562.45,Single-ply,SBD,M
Boys,89.81,4,Ray Hall,Manor,89.81,183.7,124.74,226.8,535.24,Single-ply,SBD,M
Boys,89.81,5,Issac Villanueva,Taylor,89.54,204.12,113.4,174.63,492.15,Single-ply,SBD,M
Boys,89.81,6,Jason Allen #3,Taylor,89.81,151.95,102.06,149.69,403.7,Single-ply,SBD,M
Boys,99.79,1,Jj Johnson,Manor,90.72,195.04,158.76,272.16,625.96,Single-ply,SBD,M
Boys,99.79,2,Roderick Harris,Waco,99.79,254.01,140.61,217.72,612.35,Single-ply,SBD,M
Boys,99.79,3,OC Beasley,Waco,98.88,222.26,136.08,231.33,589.67,Single-ply,SBD,M
Boys,99.79,4,Omar Smith,Pflugerville Hendrickson,93.44,219.99,111.13,231.33,562.45,Single-ply,SBD,M
Boys,99.79,5,David Quinton,Pflugerville Hendrickson,95.71,188.24,115.67,206.38,510.29,Single-ply,SBD,M
Boys,99.79,6,Caleb Henson,Pflugerville Connally,90.72,188.24,102.06,195.04,485.34,Single-ply,SBD,M
Boys,99.79,7,Tyrese Beasley,Waco,99.34,170.1,102.06,156.49,428.64,Single-ply,SBD,M
Boys,109.77,1,Marcus Mesta,Manor,104.33,272.16,149.69,238.14,659.98,Single-ply,SBD,M
Boys,109.77,2,Derrick Moore,Waco,109.32,254.01,145.15,219.99,619.15,Single-ply,SBD,M
Boys,109.77,3,Jibrail Rushing,Killeen Shoemaker,103.69,244.94,133.81,170.1,548.85,Single-ply,SBD,M
Boys,109.77,4,Paul Dominguez,Taylor,109.32,254.01,181.44,,435.45,Single-ply,SB,M
Boys,109.77,5,Kevondre Black,Waco,107.95,147.42,81.65,163.29,392.36,Single-ply,SBD,M
Boys,124.74,1,Ronaldo Ruiz,Hutto,120.66,274.42,156.49,272.16,703.07,Single-ply,SBD,M
Boys,124.74,2,Jessie Eddison,Killeen Shoemaker,122.74,272.16,140.61,185.97,598.74,Single-ply,SBD,M
Boys,124.74,3,Jimmy DeLeon,Manor,123.38,215.46,124.74,201.85,542.04,Single-ply,SBD,M
Boys,124.74,4,Paul Arculeo,Pflugerville Hendrickson,117.48,188.24,120.2,183.7,492.15,Single-ply,SBD,M
Boys,124.74,5,Jordan Barrs,Pflugerville,118.39,192.78,133.81,149.69,476.27,Single-ply,SBD,M
Boys,124.74,6,Andrew Cobus,Pflugerville Hendrickson,116.57,204.12,102.06,161.03,467.2,Single-ply,SBD,M
Boys,124.74,7,Derrick Poppe,Killeen Shoemaker,117.93,154.22,124.74,142.88,421.84,Single-ply,SBD,M
Boys,124.74,8,Many Banda,Manor,117.93,226.8,149.69,,376.48,Single-ply,SB,M
Boys,124.74+,1,Tre Thomas,Pflugerville Hendrickson,171.46,326.59,151.95,249.48,728.02,Single-ply,SBD,M
Boys,124.74+,2,Kendell Jones,Killeen Shoemaker,140.16,249.48,154.22,235.87,639.57,Single-ply,SBD,M
Boys,124.74+,3,Gabe Hernandez,Pflugerville Connally,130.63,242.67,133.81,217.72,594.21,Single-ply,SBD,M
Boys,124.74+,4,Kristian Tovar,Taylor,129.27,222.26,140.61,226.8,589.67,Single-ply,SBD,M
Boys,124.74+,5,Drandon Donnermeyer,Manor,131.54,238.14,136.08,192.78,566.99,Single-ply,SBD,M
Boys,124.74+,6,Matthew Guliart,Killeen Shoemaker,127.64,238.14,120.2,199.58,557.92,Single-ply,SBD,M
Boys,124.74+,7,Thomas Amaya,Pflugerville Connally,131.09,181.44,113.4,181.44,476.27,Single-ply,SBD,M
Boys,124.74+,8,Jordan Hamilton,Waco,135.62,142.88,88.45,136.08,367.41,Single-ply,SBD,M
